<?xml version="1.0" encoding="utf-8"?>
<!-- Generator: Adobe Illustrator 15.1.0, SVG Export Plug-In . SVG Version: 6.00 Build 0)  -->
<!DOCTYPE svg PUBLIC "-//W3C//DTD SVG 1.1//EN" "http://www.w3.org/Graphics/SVG/1.1/DTD/svg11.dtd">
<svg version="1.1" id="Strat" xmlns="http://www.w3.org/2000/svg" xmlns:xlink="http://www.w3.org/1999/xlink" x="0px" y="0px"
	 width="30px" height="30px" viewBox="0 0 30 30" enable-background="new 0 0 30 30" xml:space="preserve">
<g>
	<path fill="#333366" d="M4.661-0.045h25.311c0.124,8.41,0.063,16.821,0.046,25.216c-1.775,1.625-3.534,3.28-5.325,4.875h-24.74
		V4.875L4.661-0.045z M0.711,5.973c-0.017,7.764-0.017,15.542,0,23.306c7.855,0.015,15.695,0,23.551,0
		c0-7.779,0.031-15.557,0-23.336C16.406,5.987,8.55,5.958,0.711,5.973z"/>
</g>
<ellipse fill="none" stroke="#333366" stroke-width="1.1376" cx="8.015" cy="22.949" rx="6.047" ry="5.125"/>
<rect x="5.391" y="8.687" fill="none" stroke="#333366" stroke-width="1.015" width="5.088" height="9.324"/>
<rect x="5.875" y="10.417" fill="#FFFFFF" width="4.125" height="8.438"/>
<g>
	<path fill="#333366" d="M11.331,23.164c0-1.706-1.483-3.086-3.316-3.086c-1.832,0-3.315,1.381-3.315,3.086
		c0,1.701,1.484,3.084,3.315,3.084C9.848,26.248,11.331,24.865,11.331,23.164z"/>
	<rect x="6.915" y="11.089" fill="#333366" width="2.221" height="12.581"/>
</g>
<line fill="none" stroke="#FFFFFF" stroke-width="1.1376" x1="3.555" y1="16.875" x2="9.687" y2="16.875"/>
<line fill="none" stroke="#FFFFFF" stroke-width="1.1376" x1="3.555" y1="14.005" x2="9.687" y2="14.005"/>
<line fill="none" stroke="#FFFFFF" stroke-width="1.1376" x1="3.528" y1="11.551" x2="9.66" y2="11.551"/>
<polygon fill="none" stroke="#333366" stroke-width="1.6754" stroke-miterlimit="10" points="13.746,15.833 17.814,9.036 
	21.857,15.833 "/>
<g id="Layer_2">
	<circle fill="#FFFFFF" stroke="#333366" stroke-width="1.3226" stroke-miterlimit="10" cx="7.411" cy="23.249" r="1.624"/>
</g>
</svg>
