<?xml version="1.0" encoding="UTF-8" standalone="no"?>
<!-- Created with Inkscape (http://www.inkscape.org/) -->
<svg
   xmlns:dc="http://purl.org/dc/elements/1.1/"
   xmlns:cc="http://creativecommons.org/ns#"
   xmlns:rdf="http://www.w3.org/1999/02/22-rdf-syntax-ns#"
   xmlns:svg="http://www.w3.org/2000/svg"
   xmlns="http://www.w3.org/2000/svg"
   xmlns:sodipodi="http://sodipodi.sourceforge.net/DTD/sodipodi-0.dtd"
   xmlns:inkscape="http://www.inkscape.org/namespaces/inkscape"
   width="20.5"
   height="40.5"
   id="svg2"
   sodipodi:version="0.32"
   inkscape:version="0.46"
   sodipodi:docname="control_input_pressure.svg"
   inkscape:output_extension="org.inkscape.output.svg.inkscape"
   version="1.0">
  <defs
     id="defs4">
    <inkscape:perspective
       sodipodi:type="inkscape:persp3d"
       inkscape:vp_x="0 : 526.18109 : 1"
       inkscape:vp_y="0 : 1000 : 0"
       inkscape:vp_z="744.09448 : 526.18109 : 1"
       inkscape:persp3d-origin="372.04724 : 350.78739 : 1"
       id="perspective9" />
  </defs>
  <sodipodi:namedview
     id="base"
     pagecolor="#ffffff"
     bordercolor="#666666"
     borderopacity="1.0"
     gridtolerance="10000"
     guidetolerance="10"
     objecttolerance="10"
     inkscape:pageopacity="0.0"
     inkscape:pageshadow="2"
     inkscape:zoom="18.691358"
     inkscape:cx="10.25"
     inkscape:cy="20.25"
     inkscape:document-units="px"
     inkscape:current-layer="layer1"
     showgrid="true"
     inkscape:window-width="1397"
     inkscape:window-height="964"
     inkscape:window-x="1755"
     inkscape:window-y="75"
     inkscape:snap-global="false">
    <inkscape:grid
       type="xygrid"
       id="grid2383"
       visible="true"
       enabled="true" />
  </sodipodi:namedview>
  <metadata
     id="metadata7">
    <rdf:RDF>
      <cc:Work
         rdf:about="">
        <dc:format>image/svg+xml</dc:format>
        <dc:type
           rdf:resource="http://purl.org/dc/dcmitype/StillImage" />
      </cc:Work>
    </rdf:RDF>
  </metadata>
  <g
     inkscape:label="Layer 1"
     inkscape:groupmode="layer"
     id="layer1"
     transform="translate(-4.75,-2.1121822)">
    <path
       style="fill:#ffff00;fill-opacity:1;fill-rule:evenodd;stroke:#000000;stroke-width:0.50000000000000000;stroke-linecap:butt;stroke-linejoin:miter;stroke-miterlimit:4;stroke-dasharray:none;stroke-opacity:1"
       d="M 5,22.362183 L 15,42.362183 L 25,22.362183 L 15,2.3621822 L 5,22.362183 z"
       id="path2381" />
    <path
       style="font-size:40px;font-style:normal;font-weight:normal;line-height:125%;fill:#000000;fill-opacity:1;stroke:none;stroke-width:1px;stroke-linecap:butt;stroke-linejoin:miter;stroke-opacity:1;font-family:Bitstream Vera Sans"
       d="M 19.98707,18.39954 C 19.98706,18.744601 19.94637,19.105929 19.865,19.483524 C 19.783609,19.861137 19.655029,20.230602 19.479258,20.591923 C 19.303467,20.953258 19.080485,21.295055 18.810312,21.617313 C 18.540121,21.939585 18.212973,22.224416 17.828867,22.471806 C 17.444745,22.719207 17.003664,22.912891 16.505625,23.05286 C 16.007571,23.192839 15.420007,23.262826 14.742929,23.262821 L 13.004648,23.262821 L 12.096445,27.823368 C 12.083422,27.868941 12.060635,27.911259 12.028086,27.950321 C 11.995531,27.989384 11.94182,28.020308 11.866953,28.043095 C 11.792081,28.065881 11.700935,28.085412 11.593515,28.101688 C 11.486092,28.117964 11.351001,28.126102 11.188242,28.126102 C 11.038501,28.126102 10.911548,28.119592 10.807383,28.106571 C 10.703215,28.09355 10.620207,28.075647 10.558359,28.05286 C 10.496509,28.030074 10.454192,27.999149 10.431406,27.960087 C 10.408619,27.921024 10.403736,27.875452 10.416758,27.823368 L 12.740976,16.153446 C 12.793056,15.893042 12.900478,15.707495 13.063242,15.596806 C 13.225999,15.486141 13.414801,15.430803 13.629648,15.43079 L 16.119883,15.43079 C 16.445397,15.430803 16.733482,15.442196 16.98414,15.46497 C 17.234784,15.487769 17.477297,15.525204 17.711679,15.577274 C 18.063233,15.655412 18.380616,15.775854 18.663828,15.938602 C 18.947022,16.101375 19.186279,16.30157 19.381601,16.539188 C 19.576904,16.77683 19.726643,17.051895 19.83082,17.364384 C 19.934976,17.676894 19.98706,18.021946 19.98707,18.39954 L 19.98707,18.39954 z M 18.209726,18.575321 C 18.209718,18.171685 18.110434,17.825006 17.911875,17.535282 C 17.713299,17.245579 17.405682,17.042129 16.989023,16.924931 C 16.832766,16.879369 16.66024,16.850072 16.471445,16.83704 C 16.282636,16.82403 16.080814,16.81752 15.865976,16.817509 L 14.283945,16.817509 L 13.287851,21.885868 L 14.879648,21.885868 C 15.341882,21.885874 15.732507,21.833791 16.051523,21.729618 C 16.370527,21.625458 16.650474,21.488739 16.891367,21.319462 C 17.132245,21.150198 17.335695,20.95163 17.501719,20.723759 C 17.667726,20.495902 17.802817,20.259899 17.906992,20.015751 C 18.01115,19.771619 18.087648,19.524223 18.136484,19.273563 C 18.185304,19.022921 18.209718,18.790174 18.209726,18.575321 L 18.209726,18.575321 z"
       id="text3179" />
  </g>
</svg>
