<?xml version="1.0" encoding="UTF-8" standalone="no"?>
<!-- Created with Inkscape (http://www.inkscape.org/) -->
<svg
   xmlns:dc="http://purl.org/dc/elements/1.1/"
   xmlns:cc="http://creativecommons.org/ns#"
   xmlns:rdf="http://www.w3.org/1999/02/22-rdf-syntax-ns#"
   xmlns:svg="http://www.w3.org/2000/svg"
   xmlns="http://www.w3.org/2000/svg"
   xmlns:sodipodi="http://sodipodi.sourceforge.net/DTD/sodipodi-0.dtd"
   xmlns:inkscape="http://www.inkscape.org/namespaces/inkscape"
   width="71.043503"
   height="71.822777"
   id="svg2"
   sodipodi:version="0.32"
   inkscape:version="0.46"
   sodipodi:docname="control_VFD_modbus_combo.svg"
   inkscape:output_extension="org.inkscape.output.svg.inkscape"
   version="1.0">
  <defs
     id="defs4">
    <inkscape:perspective
       sodipodi:type="inkscape:persp3d"
       inkscape:vp_x="0 : 526.18109 : 1"
       inkscape:vp_y="0 : 1000 : 0"
       inkscape:vp_z="744.09448 : 526.18109 : 1"
       inkscape:persp3d-origin="372.04724 : 350.78739 : 1"
       id="perspective9" />
  </defs>
  <sodipodi:namedview
     id="base"
     pagecolor="#ffffff"
     bordercolor="#666666"
     borderopacity="1.0"
     gridtolerance="10000"
     guidetolerance="10"
     objecttolerance="10"
     inkscape:pageopacity="0.0"
     inkscape:pageshadow="2"
     inkscape:zoom="4.3875396"
     inkscape:cx="-38.809204"
     inkscape:cy="30.5"
     inkscape:document-units="px"
     inkscape:current-layer="layer1"
     showgrid="true"
     inkscape:window-width="1397"
     inkscape:window-height="964"
     inkscape:window-x="1855"
     inkscape:window-y="78"
     inkscape:snap-global="true">
    <inkscape:grid
       type="xygrid"
       id="grid2383"
       visible="true"
       enabled="true" />
  </sodipodi:namedview>
  <metadata
     id="metadata7">
    <rdf:RDF>
      <cc:Work
         rdf:about="">
        <dc:format>image/svg+xml</dc:format>
        <dc:type
           rdf:resource="http://purl.org/dc/dcmitype/StillImage" />
      </cc:Work>
    </rdf:RDF>
  </metadata>
  <g
     inkscape:label="Layer 1"
     inkscape:groupmode="layer"
     id="layer1">
    <path
       id="rect3155"
       style="fill:#ffff00;fill-opacity:1;stroke:#000000;stroke-opacity:1"
       d="M 4e-07,21.822775 L 50,21.822775 L 50,71.822776 L 4e-07,71.822776 L 4e-07,21.822775 z M 4e-07,21.822775 L 10,11.822776 L 60,11.822776 L 60,61.822776 L 50,71.822776 L 50,71.822776 M 50,21.822775 L 60,11.822776" />
    <path
       sodipodi:type="arc"
       style="fill:#000000;fill-opacity:1;stroke:none;stroke-width:1;stroke-linecap:butt;stroke-linejoin:round;stroke-miterlimit:4;stroke-dasharray:none;stroke-dashoffset:0;stroke-opacity:1"
       id="path3165"
       sodipodi:cx="65"
       sodipodi:cy="22.362183"
       sodipodi:rx="20"
       sodipodi:ry="20"
       d="M 84.999981,22.389722 A 20,20 0 1 1 84.999997,22.372988 L 65,22.362183 z"
       sodipodi:start="0.0013769836"
       sodipodi:end="6.2837256"
       transform="translate(-39.999981,24.433054)" />
    <path
       style="fill:#ffff00;fill-opacity:1;fill-rule:evenodd;stroke:#000000;stroke-width:0.50000000000000000;stroke-linecap:butt;stroke-linejoin:miter;stroke-miterlimit:4;stroke-dasharray:none;stroke-opacity:1"
       d="M 25,46.822777 L 25,61.822777 L 15,61.822777 L 25,46.822777 z"
       id="path3748" />
    <path
       style="fill:#ffff00;fill-opacity:1;fill-rule:evenodd;stroke:#000000;stroke-width:0.50000000000000000;stroke-linecap:butt;stroke-linejoin:miter;stroke-miterlimit:4;stroke-dasharray:none;stroke-opacity:1"
       d="M 25,46.822777 L 25,31.822776 L 35,31.822776 L 25,46.822777 z"
       id="path3750" />
    <path
       style="fill:#ffff00;fill-opacity:1;fill-rule:evenodd;stroke:#000000;stroke-width:0.50000000000000000;stroke-linecap:butt;stroke-linejoin:miter;stroke-miterlimit:4;stroke-dasharray:none;stroke-opacity:1"
       d="M 25,46.822776 L 40,46.822776 L 40,56.822776 L 25,46.822776 z"
       id="path3752" />
    <path
       style="fill:#ffff00;fill-opacity:1;fill-rule:evenodd;stroke:#000000;stroke-width:0.50000000000000000;stroke-linecap:butt;stroke-linejoin:miter;stroke-miterlimit:4;stroke-dasharray:none;stroke-opacity:1"
       d="M 25,46.822777 L 10,46.822777 L 10,36.822777 L 25,46.822777 z"
       id="path3754" />
    <path
       sodipodi:type="arc"
       style="fill:#00ff00;fill-opacity:1;stroke:none;stroke-width:1;stroke-miterlimit:4;stroke-dasharray:none;stroke-opacity:1"
       id="path2386"
       sodipodi:cx="-85"
       sodipodi:cy="-14"
       sodipodi:rx="10"
       sodipodi:ry="10"
       d="M -75,-13.99976 A 10,10 0 1 1 -75,-13.999906 L -85,-14 z"
       sodipodi:start="2.4032898e-05"
       sodipodi:end="6.2831947"
       transform="matrix(1.25,0,0,1.25,121.25,41.822776)" />
    <path
       style="fill:none;fill-rule:evenodd;stroke:#ffff00;stroke-width:4;stroke-linecap:butt;stroke-linejoin:miter;stroke-miterlimit:4;stroke-dasharray:none;stroke-opacity:1"
       d="M 20,16.822776 L 20,21.822776"
       id="path3184" />
    <path
       style="fill:none;fill-rule:evenodd;stroke:#0000ff;stroke-width:4;stroke-linecap:butt;stroke-linejoin:miter;stroke-miterlimit:4;stroke-dasharray:none;stroke-opacity:1"
       d="M 20,31.822776 L 20,21.822776"
       id="path3186" />
    <path
       style="fill:none;fill-rule:evenodd;stroke:#dddddd;stroke-width:4;stroke-linecap:butt;stroke-linejoin:miter;stroke-miterlimit:4;stroke-dasharray:none;stroke-opacity:1"
       d="M 10,21.822776 L 10,31.822776"
       id="path3188" />
    <path
       style="fill:none;fill-rule:evenodd;stroke:#ffff00;stroke-width:4;stroke-linecap:butt;stroke-linejoin:miter;stroke-miterlimit:4;stroke-dasharray:none;stroke-opacity:1"
       d="M 10,16.822776 L 10,21.822776"
       id="path3190" />
    <path
       sodipodi:type="arc"
       style="fill:#ffff00;fill-opacity:1;stroke:#000000;stroke-width:1;stroke-miterlimit:4;stroke-dasharray:none;stroke-opacity:1"
       id="path20"
       sodipodi:cx="30"
       sodipodi:cy="30.5"
       sodipodi:rx="35"
       sodipodi:ry="35"
       d="M 65,30.5 A 35,35 0 1 1 -5,30.5 A 35,35 0 1 1 65,30.5 z"
       transform="matrix(0.5,0,0,0.5,37.793502,3.0000027)" />
    <path
       sodipodi:type="arc"
       style="fill:#000000;fill-opacity:1;stroke:#000000;stroke-width:1;stroke-miterlimit:4;stroke-dasharray:none;stroke-opacity:1"
       id="path2392"
       sodipodi:cx="-115"
       sodipodi:cy="10.5"
       sodipodi:rx="5"
       sodipodi:ry="5"
       d="M -110,10.5 A 5,5 0 1 1 -120,10.5 A 5,5 0 1 1 -110,10.5 z"
       transform="matrix(0.5,0,0,0.5,110.0435,1.431095)" />
    <path
       sodipodi:type="arc"
       style="fill:#000000;fill-opacity:1;stroke:#000000;stroke-width:1;stroke-miterlimit:4;stroke-dasharray:none;stroke-opacity:1"
       id="path2394"
       sodipodi:cx="-115"
       sodipodi:cy="10.5"
       sodipodi:rx="5"
       sodipodi:ry="5"
       d="M -110,10.5 A 5,5 0 1 1 -120,10.5 A 5,5 0 1 1 -110,10.5 z"
       transform="matrix(0.5,0,0,0.5,110.0435,11.431094)" />
    <path
       sodipodi:type="arc"
       style="fill:#000000;fill-opacity:1;stroke:#000000;stroke-width:1;stroke-miterlimit:4;stroke-dasharray:none;stroke-opacity:1"
       id="path2396"
       sodipodi:cx="-115"
       sodipodi:cy="10.5"
       sodipodi:rx="5"
       sodipodi:ry="5"
       d="M -110,10.5 A 5,5 0 1 1 -120,10.5 A 5,5 0 1 1 -110,10.5 z"
       transform="matrix(0.5,0,0,0.5,100.2935,10.500002)" />
    <path
       sodipodi:type="arc"
       style="fill:#000000;fill-opacity:1;stroke:#000000;stroke-width:1;stroke-miterlimit:4;stroke-dasharray:none;stroke-opacity:1"
       id="path2398"
       sodipodi:cx="-115"
       sodipodi:cy="10.5"
       sodipodi:rx="5"
       sodipodi:ry="5"
       d="M -110,10.5 A 5,5 0 1 1 -120,10.5 A 5,5 0 1 1 -110,10.5 z"
       transform="matrix(0.5,0,0,0.5,110.0435,26.431093)" />
    <path
       sodipodi:type="arc"
       style="fill:#000000;fill-opacity:1;stroke:#000000;stroke-width:1;stroke-miterlimit:4;stroke-dasharray:none;stroke-opacity:1"
       id="path2400"
       sodipodi:cx="-115"
       sodipodi:cy="10.5"
       sodipodi:rx="5"
       sodipodi:ry="5"
       d="M -110,10.5 A 5,5 0 1 1 -120,10.5 A 5,5 0 1 1 -110,10.5 z"
       transform="matrix(0.5,0,0,0.5,120.0435,6.4310943)" />
    <path
       sodipodi:type="arc"
       style="fill:#000000;fill-opacity:1;stroke:#000000;stroke-width:1;stroke-miterlimit:4;stroke-dasharray:none;stroke-opacity:1"
       id="path2402"
       sodipodi:cx="-115"
       sodipodi:cy="10.5"
       sodipodi:rx="5"
       sodipodi:ry="5"
       d="M -110,10.5 A 5,5 0 1 1 -120,10.5 A 5,5 0 1 1 -110,10.5 z"
       transform="matrix(0.5,0,0,0.5,120.0435,16.431094)" />
    <path
       style="fill:#000000;fill-opacity:1;fill-rule:evenodd;stroke:#000000;stroke-width:0.50000000000000000px;stroke-linecap:butt;stroke-linejoin:miter;stroke-opacity:1"
       d="M 42.793502,15.750002 L 52.793502,15.750002"
       id="path3208" />
    <path
       style="fill:#000000;fill-opacity:1;fill-rule:evenodd;stroke:#000000;stroke-width:0.50000000000000000px;stroke-linecap:butt;stroke-linejoin:miter;stroke-opacity:1"
       d="M 52.793502,5.7500037 L 42.793502,15.750002"
       id="path3210" />
    <path
       style="fill:#000000;fill-opacity:1;fill-rule:evenodd;stroke:#000000;stroke-width:0.50000000000000000px;stroke-linecap:butt;stroke-linejoin:miter;stroke-opacity:1"
       d="M 62.293502,21.931094 L 52.293502,16.931095"
       id="path3216" />
    <path
       style="fill:#000000;fill-opacity:1;fill-rule:evenodd;stroke:#000000;stroke-width:0.50000000000000000px;stroke-linecap:butt;stroke-linejoin:miter;stroke-opacity:1"
       d="M 62.293502,11.931094 L 52.293502,16.931095"
       id="path3218" />
    <path
       style="fill:#000000;fill-opacity:1;fill-rule:evenodd;stroke:#000000;stroke-width:0.50000000000000000px;stroke-linecap:butt;stroke-linejoin:miter;stroke-opacity:1"
       d="M 62.293502,21.931094 L 62.293502,11.931094"
       id="path3220" />
    <path
       style="fill:#000000;fill-opacity:1;fill-rule:evenodd;stroke:#000000;stroke-width:0.50000000000000000px;stroke-linecap:butt;stroke-linejoin:miter;stroke-opacity:1"
       d="M 52.293502,6.9310943 L 52.293502,31.931093"
       id="path3226" />
  </g>
</svg>
