<?xml version="1.0" encoding="UTF-8" standalone="no"?>
<!-- Created with Inkscape (http://www.inkscape.org/) -->
<svg
   xmlns:dc="http://purl.org/dc/elements/1.1/"
   xmlns:cc="http://creativecommons.org/ns#"
   xmlns:rdf="http://www.w3.org/1999/02/22-rdf-syntax-ns#"
   xmlns:svg="http://www.w3.org/2000/svg"
   xmlns="http://www.w3.org/2000/svg"
   xmlns:sodipodi="http://sodipodi.sourceforge.net/DTD/sodipodi-0.dtd"
   xmlns:inkscape="http://www.inkscape.org/namespaces/inkscape"
   width="71"
   height="71"
   id="svg2"
   sodipodi:version="0.32"
   inkscape:version="0.46"
   sodipodi:docname="crah_valve_modbus.svg"
   inkscape:output_extension="org.inkscape.output.svg.inkscape"
   version="1.0">
  <defs
     id="defs4">
    <inkscape:perspective
       sodipodi:type="inkscape:persp3d"
       inkscape:vp_x="0 : 526.18109 : 1"
       inkscape:vp_y="0 : 1000 : 0"
       inkscape:vp_z="744.09448 : 526.18109 : 1"
       inkscape:persp3d-origin="372.04724 : 350.78739 : 1"
       id="perspective9" />
  </defs>
  <sodipodi:namedview
     id="base"
     pagecolor="#ffffff"
     bordercolor="#666666"
     borderopacity="1.0"
     gridtolerance="10000"
     guidetolerance="10"
     objecttolerance="10"
     inkscape:pageopacity="0.0"
     inkscape:pageshadow="2"
     inkscape:zoom="4.4238003"
     inkscape:cx="-35.629245"
     inkscape:cy="27.053171"
     inkscape:document-units="px"
     inkscape:current-layer="layer1"
     showgrid="true"
     inkscape:window-width="1400"
     inkscape:window-height="964"
     inkscape:window-x="1780"
     inkscape:window-y="22"
     inkscape:snap-global="true">
    <inkscape:grid
       type="xygrid"
       id="grid2383"
       visible="true"
       enabled="true" />
  </sodipodi:namedview>
  <metadata
     id="metadata7">
    <rdf:RDF>
      <cc:Work
         rdf:about="">
        <dc:format>image/svg+xml</dc:format>
        <dc:type
           rdf:resource="http://purl.org/dc/dcmitype/StillImage" />
      </cc:Work>
    </rdf:RDF>
  </metadata>
  <g
     inkscape:label="Layer 1"
     inkscape:groupmode="layer"
     id="layer1">
    <path
       sodipodi:type="arc"
       style="fill:#0000ff;fill-opacity:1;stroke:#000000;stroke-width:1;stroke-miterlimit:4;stroke-dasharray:none;stroke-opacity:1"
       id="path3186"
       sodipodi:cx="30"
       sodipodi:cy="30.5"
       sodipodi:rx="35"
       sodipodi:ry="35"
       d="M 65,30.5 A 35,35 0 1 1 -5,30.5 A 35,35 0 1 1 65,30.5 z"
       transform="translate(5,5.5)" />
    <path
       sodipodi:type="arc"
       style="fill:#99ccff;fill-opacity:1;stroke:none;stroke-width:1;stroke-miterlimit:4;stroke-dasharray:none;stroke-opacity:1"
       id="path3221"
       sodipodi:cx="-55"
       sodipodi:cy="51"
       sodipodi:rx="20"
       sodipodi:ry="20"
       d="M -35,51 A 20,20 0 1 1 -75,51 A 20,20 0 1 1 -35,51 z"
       transform="translate(90,-15)" />
    <path
       sodipodi:type="arc"
       style="fill:#99ccff;fill-opacity:1;stroke:none;stroke-width:1;stroke-miterlimit:4;stroke-dasharray:none;stroke-opacity:1"
       id="path3223"
       sodipodi:cx="-90"
       sodipodi:cy="31"
       sodipodi:rx="5"
       sodipodi:ry="5"
       d="M -85,31 A 5,5 0 1 1 -95,31 A 5,5 0 1 1 -85,31 z"
       transform="translate(125,-15)" />
    <path
       sodipodi:type="arc"
       style="fill:#99ccff;fill-opacity:1;stroke:none;stroke-width:1;stroke-miterlimit:4;stroke-dasharray:none;stroke-opacity:1"
       id="path3229"
       sodipodi:cx="-95"
       sodipodi:cy="23.5"
       sodipodi:rx="10"
       sodipodi:ry="2.5"
       d="M -85,23.5 A 10,2.5 0 1 1 -105,23.5 A 10,2.5 0 1 1 -85,23.5 z"
       transform="translate(120,-10)" />
    <path
       sodipodi:type="arc"
       style="fill:#99ccff;fill-opacity:1;stroke:none;stroke-width:1;stroke-miterlimit:4;stroke-dasharray:none;stroke-opacity:1"
       id="path3231"
       sodipodi:cx="-95"
       sodipodi:cy="23.5"
       sodipodi:rx="10"
       sodipodi:ry="2.5"
       d="M -85,23.5 A 10,2.5 0 1 1 -105,23.5 A 10,2.5 0 1 1 -85,23.5 z"
       transform="translate(140,-10)" />
    <rect
       style="fill:#99ccff;fill-opacity:1;stroke:none;stroke-width:1;stroke-miterlimit:4;stroke-dasharray:none;stroke-opacity:1"
       id="rect3219"
       width="60"
       height="10"
       x="5"
       y="31" />
    <path
       sodipodi:type="arc"
       style="fill:#00ff00;fill-opacity:1;stroke:none;stroke-width:1;stroke-miterlimit:4;stroke-dasharray:none;stroke-opacity:1"
       id="path2388"
       sodipodi:cx="-147.5"
       sodipodi:cy="1"
       sodipodi:rx="2.5"
       sodipodi:ry="5"
       d="M -145,1 A 2.5,5 0 1 1 -150,1 A 2.5,5 0 1 1 -145,1 z"
       transform="matrix(5,0,0,2.5,752.5,11)" />
    <path
       style="fill:none;fill-rule:evenodd;stroke:#dddddd;stroke-width:4;stroke-linecap:butt;stroke-linejoin:miter;stroke-miterlimit:4;stroke-dasharray:none;stroke-opacity:1"
       d="M 10,21 L 10,11"
       id="path3204" />
    <path
       style="fill:none;fill-rule:evenodd;stroke:#ffff00;stroke-width:4;stroke-linecap:butt;stroke-linejoin:miter;stroke-miterlimit:4;stroke-dasharray:none;stroke-opacity:1"
       d="M 10,6 L 10,11"
       id="path3206" />
    <path
       style="fill:none;fill-rule:evenodd;stroke:#0000ff;stroke-width:4;stroke-linecap:butt;stroke-linejoin:miter;stroke-miterlimit:4;stroke-dasharray:none;stroke-opacity:1"
       d="M 20,21 L 20,11"
       id="path3208" />
    <path
       style="fill:none;fill-rule:evenodd;stroke:#ffff00;stroke-width:4;stroke-linecap:butt;stroke-linejoin:miter;stroke-miterlimit:4;stroke-dasharray:none;stroke-opacity:1"
       d="M 20,6 L 20,11"
       id="path3210" />
  </g>
</svg>
