<?xml version="1.0" encoding="UTF-8" standalone="no"?>
<!-- Created with Inkscape (http://www.inkscape.org/) -->
<svg
   xmlns:dc="http://purl.org/dc/elements/1.1/"
   xmlns:cc="http://creativecommons.org/ns#"
   xmlns:rdf="http://www.w3.org/1999/02/22-rdf-syntax-ns#"
   xmlns:svg="http://www.w3.org/2000/svg"
   xmlns="http://www.w3.org/2000/svg"
   xmlns:sodipodi="http://sodipodi.sourceforge.net/DTD/sodipodi-0.dtd"
   xmlns:inkscape="http://www.inkscape.org/namespaces/inkscape"
   width="183"
   height="113"
   id="svg2"
   sodipodi:version="0.32"
   inkscape:version="0.46"
   sodipodi:docname="duo-rearexhaust-sf-rt-6.svg"
   inkscape:output_extension="org.inkscape.output.svg.inkscape"
   version="1.0">
  <sodipodi:namedview
     id="base"
     pagecolor="#ffffff"
     bordercolor="#666666"
     borderopacity="1.0"
     gridtolerance="10000"
     guidetolerance="10"
     objecttolerance="10"
     inkscape:pageopacity="0.0"
     inkscape:pageshadow="2"
     inkscape:zoom="3.2350135"
     inkscape:cx="72.492722"
     inkscape:cy="57.748354"
     inkscape:document-units="px"
     inkscape:current-layer="layer1"
     showgrid="true"
     inkscape:window-width="1625"
     inkscape:window-height="897"
     inkscape:window-x="2056"
     inkscape:window-y="84"
     inkscape:snap-global="false">
    <inkscape:grid
       enabled="true"
       visible="true"
       id="grid2412"
       type="xygrid" />
  </sodipodi:namedview>
  <defs
     id="defs4">
    <inkscape:perspective
       id="perspective22"
       inkscape:persp3d-origin="90.178139 : 52.451462 : 1"
       inkscape:vp_z="180.35628 : 78.677193 : 1"
       inkscape:vp_y="0 : 1000 : 0"
       inkscape:vp_x="0 : 78.677193 : 1"
       sodipodi:type="inkscape:persp3d" />
  </defs>
  <metadata
     id="metadata7">
    <rdf:RDF>
      <cc:Work
         rdf:about="">
        <dc:format>image/svg+xml</dc:format>
        <dc:type
           rdf:resource="http://purl.org/dc/dcmitype/StillImage" />
      </cc:Work>
    </rdf:RDF>
  </metadata>
  <g
     transform="translate(-0.6437169,-0.2629669)"
     id="layer1"
     inkscape:groupmode="layer"
     inkscape:label="Layer 1">
    <rect
       y="1.3273869"
       x="1.6851025"
       height="111.09467"
       width="180.7845"
       id="rect3155"
       style="fill:#b9b9b9;fill-opacity:1;stroke:#000000;stroke-width:2.1803081;stroke-linecap:butt;stroke-linejoin:miter;stroke-miterlimit:4;stroke-dasharray:none;stroke-opacity:1" />
    <rect
       y="2.0221329"
       x="1.7188282"
       height="109.92538"
       width="35.252907"
       id="rect2383"
       style="fill:#e32b24;fill-opacity:1;fill-rule:nonzero;stroke:#000000;stroke-width:0.95771700000000004;stroke-linecap:butt;stroke-linejoin:miter;stroke-miterlimit:4;stroke-dasharray:none;stroke-opacity:1" />
    <rect
       y="1.9753914"
       x="146.96712"
       height="109.81198"
       width="35.253395"
       id="rect4644"
       style="fill:#188abc;fill-opacity:1;stroke:#000000;stroke-width:0.95722954999999998;stroke-linecap:butt;stroke-linejoin:miter;stroke-miterlimit:4;stroke-dasharray:none;stroke-opacity:1" />
    <path
       sodipodi:type="arc"
       style="opacity:1;fill:#000000;fill-opacity:1;stroke:none;stroke-width:0;stroke-linejoin:miter;stroke-miterlimit:4;stroke-dasharray:none;stroke-opacity:1"
       id="path2689"
       sodipodi:cx="137.5"
       sodipodi:cy="49.854385"
       sodipodi:rx="7.5"
       sodipodi:ry="7.5"
       d="M 145,49.854385 A 7.5,7.5 0 1 1 130,49.854385 A 7.5,7.5 0 1 1 145,49.854385 z"
       transform="translate(27.313502,-0.726095)" />
    <path
       sodipodi:type="arc"
       style="opacity:1;fill:#000000;fill-opacity:1;stroke:none;stroke-width:0;stroke-linejoin:miter;stroke-miterlimit:4;stroke-dasharray:none;stroke-opacity:1"
       id="path2691"
       sodipodi:cx="132.5"
       sodipodi:cy="69.854385"
       sodipodi:rx="7.5"
       sodipodi:ry="7.5"
       d="M 140,69.854385 A 7.5,7.5 0 1 1 125,69.854385 A 7.5,7.5 0 1 1 140,69.854385 z"
       transform="translate(32.313502,-0.753417)" />
    <path
       sodipodi:type="arc"
       style="opacity:1;fill:#000000;fill-opacity:1;stroke:none;stroke-width:0;stroke-linejoin:miter;stroke-miterlimit:4;stroke-dasharray:none;stroke-opacity:1"
       id="path2687"
       sodipodi:cx="132.5"
       sodipodi:cy="24.854385"
       sodipodi:rx="7.5"
       sodipodi:ry="7.5"
       d="M 140,24.854385 A 7.5,7.5 0 1 1 125,24.854385 A 7.5,7.5 0 1 1 140,24.854385 z"
       transform="translate(32.313502,4.301227)" />
    <path
       sodipodi:type="arc"
       style="opacity:1;fill:#000000;fill-opacity:1;stroke:none;stroke-width:0;stroke-linejoin:miter;stroke-miterlimit:4;stroke-dasharray:none;stroke-opacity:1"
       id="path35066"
       sodipodi:cx="132.5"
       sodipodi:cy="24.854385"
       sodipodi:rx="7.5"
       sodipodi:ry="7.5"
       d="M 140,24.854385 A 7.5,7.5 0 1 1 125,24.854385 A 7.5,7.5 0 1 1 140,24.854385 z"
       transform="translate(-112.76185,4.145088)" />
    <path
       sodipodi:type="arc"
       style="fill:#000000;fill-opacity:1;stroke:none;stroke-width:0;stroke-linejoin:miter;stroke-miterlimit:4;stroke-dasharray:none;stroke-opacity:1"
       id="path36864"
       sodipodi:cx="52.5"
       sodipodi:cy="44.854385"
       sodipodi:rx="7.5"
       sodipodi:ry="7.5"
       d="M 60,44.854385 A 7.5,7.5 0 1 1 45,44.854385 A 7.5,7.5 0 1 1 60,44.854385 z"
       transform="matrix(-0.9999886,4.7830174e-3,-4.7830174e-3,-0.9999886,72.338599,144.56812)" />
    <rect
       style="fill:#000000;fill-opacity:1;stroke:none;stroke-width:0.69999999;stroke-linejoin:miter;stroke-miterlimit:4;stroke-dasharray:none;stroke-opacity:0.96825412"
       id="rect36866"
       width="25.000002"
       height="2"
       x="-31.646297"
       y="-91.642609"
       transform="matrix(-0.9999886,4.7830172e-3,-4.7830172e-3,-0.9999886,0,0)" />
    <path
       sodipodi:type="arc"
       style="fill:#000000;fill-opacity:1;stroke:none;stroke-width:0;stroke-linejoin:miter;stroke-miterlimit:4;stroke-dasharray:none;stroke-opacity:1"
       id="path25750"
       sodipodi:cx="132.5"
       sodipodi:cy="69.854385"
       sodipodi:rx="7.5"
       sodipodi:ry="7.5"
       d="M 140,69.854385 A 7.5,7.5 0 1 1 125,69.854385 A 7.5,7.5 0 1 1 140,69.854385 z"
       transform="translate(-112.76185,-10.739754)" />
    <path
       style="fill:#000000;fill-opacity:1;fill-rule:evenodd;stroke:none;stroke-width:1px;stroke-linecap:butt;stroke-linejoin:miter;stroke-opacity:1"
       d="M 90.547303,34.688931 L 84.427083,59.42945 L 94.481723,55.126752 L 92.514513,69.91728 L 88.361503,66.959174 L 93.170253,79.060516 L 99.509053,69.379442 L 94.918883,69.91728 L 99.727623,49.21054 L 90.547303,52.706483 L 99.290473,35.495686 L 90.547303,34.688931 z"
       id="path10228" />
  </g>
</svg>
