<?xml version="1.0" encoding="UTF-8" standalone="no"?>
<!-- Created with Inkscape (http://www.inkscape.org/) -->
<svg
   xmlns:dc="http://purl.org/dc/elements/1.1/"
   xmlns:cc="http://creativecommons.org/ns#"
   xmlns:rdf="http://www.w3.org/1999/02/22-rdf-syntax-ns#"
   xmlns:svg="http://www.w3.org/2000/svg"
   xmlns="http://www.w3.org/2000/svg"
   xmlns:sodipodi="http://sodipodi.sourceforge.net/DTD/sodipodi-0.dtd"
   xmlns:inkscape="http://www.inkscape.org/namespaces/inkscape"
   width="183"
   height="113"
   id="svg2"
   sodipodi:version="0.32"
   inkscape:version="0.46"
   sodipodi:docname="halley2.svg"
   inkscape:output_extension="org.inkscape.output.svg.inkscape"
   version="1.0">
  <sodipodi:namedview
     id="base"
     pagecolor="#ffffff"
     bordercolor="#666666"
     borderopacity="1.0"
     gridtolerance="10000"
     guidetolerance="10"
     objecttolerance="10"
     inkscape:pageopacity="0.0"
     inkscape:pageshadow="2"
     inkscape:zoom="4.575"
     inkscape:cx="57.705358"
     inkscape:cy="45.492935"
     inkscape:document-units="px"
     inkscape:current-layer="layer1"
     showgrid="false"
     inkscape:window-width="1582"
     inkscape:window-height="860"
     inkscape:window-x="1626"
     inkscape:window-y="22"
     inkscape:snap-global="false">
    <inkscape:grid
       enabled="true"
       visible="true"
       id="grid2412"
       type="xygrid" />
  </sodipodi:namedview>
  <defs
     id="defs4">
    <inkscape:perspective
       id="perspective22"
       inkscape:persp3d-origin="90.178139 : 52.451462 : 1"
       inkscape:vp_z="180.35628 : 78.677193 : 1"
       inkscape:vp_y="0 : 1000 : 0"
       inkscape:vp_x="0 : 78.677193 : 1"
       sodipodi:type="inkscape:persp3d" />
  </defs>
  <metadata
     id="metadata7">
    <rdf:RDF>
      <cc:Work
         rdf:about="">
        <dc:format>image/svg+xml</dc:format>
        <dc:type
           rdf:resource="http://purl.org/dc/dcmitype/StillImage" />
      </cc:Work>
    </rdf:RDF>
  </metadata>
  <g
     transform="translate(-0.6437169,-0.2629669)"
     id="layer1"
     inkscape:groupmode="layer"
     inkscape:label="Layer 1">
    <rect
       y="1.2156303"
       x="1.6851025"
       height="111.09467"
       width="180.7845"
       id="rect3155"
       style="fill:#999999;fill-opacity:1;stroke:#000000;stroke-width:2.18030810000000000;stroke-linecap:butt;stroke-linejoin:miter;stroke-miterlimit:4;stroke-dasharray:none;stroke-opacity:1" />
    <rect
       rx="6.7759566"
       style="fill:#999999;fill-opacity:1;fill-rule:nonzero;stroke:none;stroke-width:2;stroke-linejoin:miter;stroke-miterlimit:4;stroke-dasharray:none;stroke-opacity:1"
       id="rect11591"
       width="14.569318"
       height="19.924562"
       x="-36.691177"
       y="158.34807"
       transform="matrix(1.1230692e-4,-1,1,1.6631604e-4,0,0)"
       ry="0" />
    <rect
       style="fill:#999999;fill-opacity:1;fill-rule:nonzero;stroke:none;stroke-width:2;stroke-linejoin:miter;stroke-miterlimit:4;stroke-dasharray:none;stroke-opacity:1"
       id="rect11593"
       width="2.200474"
       height="4.4513712"
       x="159.91948"
       y="27.020868"
       ry="0"
       rx="3.059968"
       transform="matrix(0.9997714,2.1380908e-2,-1.3659781e-2,0.9999067,0,0)"
       inkscape:transform-center-y="-10.697464" />
    <rect
       rx="6.7759566"
       style="fill:#000000;fill-opacity:1;fill-rule:nonzero;stroke:none;stroke-width:2;stroke-linejoin:miter;stroke-miterlimit:4;stroke-dasharray:none;stroke-opacity:1"
       id="rect3445"
       width="14.569318"
       height="19.924562"
       x="-20.197815"
       y="158.33578"
       transform="matrix(1.1230692e-4,-1,1,1.6631604e-4,0,0)"
       ry="0" />
    <rect
       style="fill:#999999;fill-opacity:1;fill-rule:nonzero;stroke:none;stroke-width:2;stroke-linejoin:miter;stroke-miterlimit:4;stroke-dasharray:none;stroke-opacity:1"
       id="rect3447"
       width="2.200474"
       height="4.4513712"
       x="159.68376"
       y="10.531005"
       ry="0"
       rx="3.059968"
       transform="matrix(0.9997714,2.1380908e-2,-1.3659781e-2,0.9999067,0,0)"
       inkscape:transform-center-y="-10.697462" />
    <path
       sodipodi:type="arc"
       style="fill:#000000;fill-opacity:1;stroke:none;stroke-width:0;stroke-linejoin:miter;stroke-miterlimit:4;stroke-dasharray:none;stroke-opacity:1"
       id="path2687"
       sodipodi:cx="132.5"
       sodipodi:cy="24.854385"
       sodipodi:rx="7.5"
       sodipodi:ry="7.5"
       d="M 140,24.854385 A 7.5,7.5 0 1 1 125,24.854385 A 7.5,7.5 0 1 1 140,24.854385 z"
       transform="matrix(0.2747091,0,0,0.2747091,116.98381,1.0072849)" />
    <path
       sodipodi:type="arc"
       style="fill:#000000;fill-opacity:1;stroke:none;stroke-width:0;stroke-linejoin:miter;stroke-miterlimit:4;stroke-dasharray:none;stroke-opacity:1"
       id="path6817"
       sodipodi:cx="132.5"
       sodipodi:cy="24.854385"
       sodipodi:rx="7.5"
       sodipodi:ry="7.5"
       d="M 140,24.854385 A 7.5,7.5 0 1 1 125,24.854385 A 7.5,7.5 0 1 1 140,24.854385 z"
       transform="matrix(0.2747091,0,0,0.2747091,116.98381,10.770302)" />
    <path
       sodipodi:type="arc"
       style="fill:#000000;fill-opacity:1;stroke:none;stroke-width:0;stroke-linejoin:miter;stroke-miterlimit:4;stroke-dasharray:none;stroke-opacity:1"
       id="path16656"
       sodipodi:cx="132.5"
       sodipodi:cy="24.854385"
       sodipodi:rx="7.5"
       sodipodi:ry="7.5"
       d="M 140,24.854385 A 7.5,7.5 0 1 1 125,24.854385 A 7.5,7.5 0 1 1 140,24.854385 z"
       transform="matrix(0.2747091,0,0,0.2747091,109.74062,1.0072846)" />
    <path
       sodipodi:type="arc"
       style="fill:#000000;fill-opacity:1;stroke:none;stroke-width:0;stroke-linejoin:miter;stroke-miterlimit:4;stroke-dasharray:none;stroke-opacity:1"
       id="path16658"
       sodipodi:cx="132.5"
       sodipodi:cy="24.854385"
       sodipodi:rx="7.5"
       sodipodi:ry="7.5"
       d="M 140,24.854385 A 7.5,7.5 0 1 1 125,24.854385 A 7.5,7.5 0 1 1 140,24.854385 z"
       transform="matrix(0.2747091,0,0,0.2747091,109.74062,10.770302)" />
    <path
       sodipodi:type="arc"
       style="fill:#000000;fill-opacity:1;stroke:none;stroke-width:0;stroke-linejoin:miter;stroke-miterlimit:4;stroke-dasharray:none;stroke-opacity:1"
       id="path16670"
       sodipodi:cx="132.5"
       sodipodi:cy="24.854385"
       sodipodi:rx="7.5"
       sodipodi:ry="7.5"
       d="M 140,24.854385 A 7.5,7.5 0 1 1 125,24.854385 A 7.5,7.5 0 1 1 140,24.854385 z"
       transform="matrix(0.2747091,0,0,0.2747091,102.21611,1.0072846)" />
    <path
       sodipodi:type="arc"
       style="fill:#000000;fill-opacity:1;stroke:none;stroke-width:0;stroke-linejoin:miter;stroke-miterlimit:4;stroke-dasharray:none;stroke-opacity:1"
       id="path16672"
       sodipodi:cx="132.5"
       sodipodi:cy="24.854385"
       sodipodi:rx="7.5"
       sodipodi:ry="7.5"
       d="M 140,24.854385 A 7.5,7.5 0 1 1 125,24.854385 A 7.5,7.5 0 1 1 140,24.854385 z"
       transform="matrix(0.2747091,0,0,0.2747091,102.21611,10.770302)" />
  </g>
</svg>
