<?xml version="1.0" encoding="UTF-8" standalone="no"?>
<!-- Created with Inkscape (http://www.inkscape.org/) -->
<svg
   xmlns:dc="http://purl.org/dc/elements/1.1/"
   xmlns:cc="http://creativecommons.org/ns#"
   xmlns:rdf="http://www.w3.org/1999/02/22-rdf-syntax-ns#"
   xmlns:svg="http://www.w3.org/2000/svg"
   xmlns="http://www.w3.org/2000/svg"
   xmlns:sodipodi="http://sodipodi.sourceforge.net/DTD/sodipodi-0.dtd"
   xmlns:inkscape="http://www.inkscape.org/namespaces/inkscape"
   width="185"
   height="75"
   id="svg2"
   sodipodi:version="0.32"
   inkscape:version="0.46"
   sodipodi:docname="pdu.svg"
   inkscape:output_extension="org.inkscape.output.svg.inkscape"
   version="1.0">
  <sodipodi:namedview
     id="base"
     pagecolor="#ffffff"
     bordercolor="#666666"
     borderopacity="1.0"
     gridtolerance="10000"
     guidetolerance="10"
     objecttolerance="10"
     inkscape:pageopacity="0.0"
     inkscape:pageshadow="2"
     inkscape:zoom="3.1432732"
     inkscape:cx="96.850658"
     inkscape:cy="42.801011"
     inkscape:document-units="px"
     inkscape:current-layer="layer1"
     showgrid="false"
     inkscape:window-width="1773"
     inkscape:window-height="912"
     inkscape:window-x="1610"
     inkscape:window-y="114">
    <inkscape:grid
       enabled="true"
       visible="true"
       id="grid2412"
       type="xygrid" />
  </sodipodi:namedview>
  <defs
     id="defs4">
    <inkscape:perspective
       id="perspective22"
       inkscape:persp3d-origin="90.178139 : 52.451462 : 1"
       inkscape:vp_z="180.35628 : 78.677193 : 1"
       inkscape:vp_y="0 : 1000 : 0"
       inkscape:vp_x="0 : 78.677193 : 1"
       sodipodi:type="inkscape:persp3d" />
    <inkscape:perspective
       id="perspective8125"
       inkscape:persp3d-origin="372.04724 : 350.78739 : 1"
       inkscape:vp_z="744.09448 : 526.18109 : 1"
       inkscape:vp_y="0 : 1000 : 0"
       inkscape:vp_x="0 : 526.18109 : 1"
       sodipodi:type="inkscape:persp3d" />
    <inkscape:perspective
       id="perspective8816"
       inkscape:persp3d-origin="372.04724 : 350.78739 : 1"
       inkscape:vp_z="744.09448 : 526.18109 : 1"
       inkscape:vp_y="0 : 1000 : 0"
       inkscape:vp_x="0 : 526.18109 : 1"
       sodipodi:type="inkscape:persp3d" />
    <inkscape:perspective
       id="perspective9174"
       inkscape:persp3d-origin="372.04724 : 350.78739 : 1"
       inkscape:vp_z="744.09448 : 526.18109 : 1"
       inkscape:vp_y="0 : 1000 : 0"
       inkscape:vp_x="0 : 526.18109 : 1"
       sodipodi:type="inkscape:persp3d" />
  </defs>
  <metadata
     id="metadata7">
    <rdf:RDF>
      <cc:Work
         rdf:about="">
        <dc:format>image/svg+xml</dc:format>
        <dc:type
           rdf:resource="http://purl.org/dc/dcmitype/StillImage" />
      </cc:Work>
    </rdf:RDF>
  </metadata>
  <g
     transform="translate(-0.6437169,-0.2629669)"
     id="layer1"
     inkscape:groupmode="layer"
     inkscape:label="Layer 1">
    <rect
       y="0.78492767"
       x="1.7059969"
       height="73.813263"
       width="183.46642"
       id="rect4232"
       style="fill:#000000;fill-opacity:1;stroke:#000000;stroke-width:1.79034269;stroke-linecap:butt;stroke-linejoin:miter;stroke-miterlimit:4;stroke-dasharray:none;stroke-opacity:1" />
    <path
       d="M 4.7744075,4.9532531 L 56.641484,4.8801662 L 56.916893,69.970659 L 5.0498211,70.043761 L 4.7744075,4.9532531 z"
       id="path4234"
       style="fill:#f9f9f9;fill-opacity:1;stroke:none;stroke-width:2.43567872;stroke-linejoin:round;stroke-miterlimit:4;stroke-dasharray:none;stroke-opacity:1" />
    <path
       d="M 88.999934,3.667388 L 89.266018,71.079624 L 59.177617,71.281551 L 58.911534,3.8693239 L 88.999934,3.667388 z"
       id="path4236"
       style="fill:#ffffff;fill-opacity:1;stroke:none;stroke-width:2.57931542;stroke-linejoin:round;stroke-miterlimit:4;stroke-dasharray:none;stroke-opacity:1" />
    <rect
       style="opacity:1;fill:#666666;fill-opacity:1;fill-rule:nonzero;stroke:none;stroke-width:2.57327485;stroke-linejoin:miter;stroke-miterlimit:4;stroke-dasharray:none;stroke-opacity:1"
       id="rect4064"
       width="14.8982"
       height="26.945601"
       x="66.639679"
       y="11.898711" />
    <rect
       style="opacity:1;fill:none;fill-opacity:1;fill-rule:nonzero;stroke:#000000;stroke-width:1.00254178;stroke-linejoin:miter;stroke-miterlimit:4;stroke-dasharray:none;stroke-opacity:1"
       id="rect4072"
       width="15.311192"
       height="51.508457"
       x="66.433182"
       y="11.720244" />
    <path
       d="M 120.19722,3.6364296 L 120.46331,71.048661 L 90.37491,71.250588 L 90.108824,3.8383645 L 120.19722,3.6364296 z"
       id="path4074"
       style="fill:#ffffff;fill-opacity:1;stroke:none;stroke-width:2.57931542;stroke-linejoin:round;stroke-miterlimit:4;stroke-dasharray:none;stroke-opacity:1" />
    <rect
       style="opacity:1;fill:#666666;fill-opacity:1;fill-rule:nonzero;stroke:none;stroke-width:2.57327485;stroke-linejoin:miter;stroke-miterlimit:4;stroke-dasharray:none;stroke-opacity:1"
       id="rect4076"
       width="14.8982"
       height="26.945601"
       x="97.83696"
       y="11.867747" />
    <rect
       style="opacity:1;fill:none;fill-opacity:1;fill-rule:nonzero;stroke:#000000;stroke-width:1.00254178;stroke-linejoin:miter;stroke-miterlimit:4;stroke-dasharray:none;stroke-opacity:1"
       id="rect4078"
       width="15.311192"
       height="51.508457"
       x="97.630486"
       y="11.689281" />
    <path
       d="M 151.25092,3.4181718 L 151.517,70.830403 L 121.42861,71.032332 L 121.16253,3.6201077 L 151.25092,3.4181718 z"
       id="path4080"
       style="fill:#ffffff;fill-opacity:1;stroke:none;stroke-width:2.57931542;stroke-linejoin:round;stroke-miterlimit:4;stroke-dasharray:none;stroke-opacity:1" />
    <rect
       style="opacity:1;fill:#666666;fill-opacity:1;fill-rule:nonzero;stroke:none;stroke-width:2.57327485;stroke-linejoin:miter;stroke-miterlimit:4;stroke-dasharray:none;stroke-opacity:1"
       id="rect4082"
       width="14.8982"
       height="26.945601"
       x="128.89067"
       y="35.855415" />
    <rect
       style="opacity:1;fill:none;fill-opacity:1;fill-rule:nonzero;stroke:#000000;stroke-width:1.00254178;stroke-linejoin:miter;stroke-miterlimit:4;stroke-dasharray:none;stroke-opacity:1"
       id="rect4084"
       width="15.311192"
       height="51.508457"
       x="128.68417"
       y="11.471031" />
    <path
       d="M 182.08896,3.199916 L 182.35504,70.612147 L 152.26664,70.814075 L 152.00056,3.4018519 L 182.08896,3.199916 z"
       id="path4086"
       style="fill:#ffffff;fill-opacity:1;stroke:none;stroke-width:2.57931542;stroke-linejoin:round;stroke-miterlimit:4;stroke-dasharray:none;stroke-opacity:1" />
    <rect
       style="opacity:1;fill:#666666;fill-opacity:1;fill-rule:nonzero;stroke:none;stroke-width:2.57327485;stroke-linejoin:miter;stroke-miterlimit:4;stroke-dasharray:none;stroke-opacity:1"
       id="rect4088"
       width="14.8982"
       height="26.945601"
       x="159.7287"
       y="11.431233" />
    <rect
       style="opacity:1;fill:none;fill-opacity:1;fill-rule:nonzero;stroke:#000000;stroke-width:1.00254178;stroke-linejoin:miter;stroke-miterlimit:4;stroke-dasharray:none;stroke-opacity:1"
       id="rect4090"
       width="15.311192"
       height="51.508457"
       x="159.5222"
       y="11.252775" />
    <g
       id="g4958"
       transform="matrix(0.6891844,0,0,0.6975114,68.591723,46.532437)">
      <path
         sodipodi:nodetypes="ccccccccccccccccccccccccccc"
         id="path4426"
         d="M -82.74672,-39.478234 C -78.759451,-39.39809 -74.772182,-39.317946 -70.784914,-39.237802 C -67.35726,-39.306887 -63.678451,-38.863201 -60.999633,-36.233436 C -58.532025,-34.070718 -58.633917,-29.898764 -60.122571,-27.112671 C -62.527375,-30.800349 -67.399968,-32.221204 -71.090619,-30.179758 C -72.900523,-29.612233 -74.45337,-26.69629 -72.379215,-25.349383 C -70.214268,-23.961596 -67.57077,-23.200078 -65.081578,-23.739904 C -63.029263,-23.784873 -61.011841,-26.047708 -59.952645,-26.833164 C -58.22381,-23.641364 -57.858525,-19.021375 -60.122571,-16.028693 C -61.981598,-19.839099 -66.446508,-21.309442 -70.02105,-19.898312 C -71.697747,-19.351348 -74.48619,-17.848269 -73.474942,-15.46651 C -72.042643,-13.78624 -69.82313,-13.445168 -67.877497,-12.979923 C -65.103353,-12.68873 -62.040122,-13.696038 -60.122571,-16.028693 C -58.772192,-13.173072 -58.153654,-9.551152 -59.318862,-6.4971702 C -59.817773,-4.6204378 -60.4235,-5.9698125 -61.144445,-6.9251829 C -63.381802,-9.3145983 -66.838078,-10.620935 -69.869197,-9.5951562 C -71.535018,-8.9136439 -73.579039,-7.291769 -73.351154,-5.1071401 C -72.346375,-3.3978498 -70.393239,-2.8780425 -68.756351,-2.2453245 C -65.68686,-1.9188311 -62.112653,-2.5578558 -59.998091,-5.2910902 C -58.690214,-2.7244833 -58.13141,0.51069921 -58.935356,3.3661382 C -59.454724,5.5271982 -60.368091,5.2730582 -61.29679,3.5733242 C -64.28567,0.21834621 -69.540258,0.015995205 -72.7517,3.0773292 C -74.864428,5.0212892 -72.186732,7.1124682 -70.464702,7.5887222 C -67.054871,9.3501822 -62.915379,8.2233692 -60.188152,5.4957002 C -59.403393,6.4865982 -59.271098,9.9122042 -60.377402,11.480595 C -62.269353,14.016806 -65.484929,14.252654 -68.217627,14.649226 C -72.99527,14.736765 -77.779725,14.662079 -82.56,14.68691"
         style="fill:none;fill-rule:evenodd;stroke:#000000;stroke-width:1.5;stroke-linecap:butt;stroke-linejoin:miter;stroke-miterlimit:4;stroke-dasharray:none;stroke-opacity:1" />
      <path
         sodipodi:nodetypes="ccccccccccccccccccccccccccc"
         id="path4942"
         d="M -25.535559,11.619788 C -28.854229,11.46074 -32.172898,11.301692 -35.491567,11.142644 C -38.347654,11.120834 -41.401027,10.666176 -43.57102,8.4141391 C -45.575933,6.5559436 -45.3945,3.0839765 -44.09028,0.79823236 C -42.172971,3.9249361 -38.148057,5.2209951 -35.027291,3.606349 C -33.506899,3.1756262 -32.146213,0.78322817 -33.842352,-0.38646567 C -35.613153,-1.5923079 -37.796981,-2.2876827 -39.882431,-1.8957492 C -41.592603,-1.9058131 -43.325059,-0.068061883 -44.22532,0.56153102 C -45.591174,-2.136566 -45.788426,-5.9924602 -43.83369,-8.4323035 C -42.373736,-5.2160328 -38.689478,-3.8881909 -35.679998,-4.9806061 C -34.271013,-5.3972994 -31.914054,-6.5844801 -32.701066,-8.5913762 C -33.854961,-10.023831 -35.695435,-10.359255 -37.304952,-10.791735 C -39.608468,-11.098459 -42.182789,-10.330504 -43.83369,-8.4323035 C -44.892155,-10.841672 -45.323416,-13.87226 -44.282354,-16.388586 C -43.823425,-17.939944 -43.350224,-16.802187 -42.77195,-15.989884 C -40.964034,-13.948231 -38.115951,-12.78032 -35.567945,-13.564403 C -34.164903,-14.093391 -32.425134,-15.396739 -32.564339,-17.221336 C -33.361531,-18.668062 -34.976034,-19.146161 -36.324558,-19.71097 C -38.873215,-20.053927 -41.864543,-19.6045 -43.688784,-17.377264 C -44.718544,-19.544964 -45.109013,-22.2521 -44.3734,-24.611446 C -43.890852,-26.399115 -43.136099,-26.166327 -42.402044,-24.729321 C -39.990626,-21.866166 -35.619386,-21.57601 -32.874087,-24.051089 C -31.069644,-25.621074 -33.25117,-27.424558 -34.67422,-27.861038 C -37.473088,-29.406885 -40.946466,-28.564324 -43.280795,-26.355905 C -43.91139,-27.199274 -43.942261,-30.055118 -42.984644,-31.335635 C -41.350349,-33.403947 -38.667017,-33.525918 -36.382095,-33.792915 C -32.401335,-33.755216 -28.418657,-33.58226 -24.437157,-33.492278"
         style="fill:none;fill-rule:evenodd;stroke:#000000;stroke-width:1.5;stroke-linecap:butt;stroke-linejoin:miter;stroke-miterlimit:4;stroke-dasharray:none;stroke-opacity:1" />
      <path
         id="path4954"
         d="M -53.708448,-40.594085 L -53.708448,14.970724 L -53.933408,16.545435"
         style="fill:none;fill-rule:evenodd;stroke:#000000;stroke-width:1;stroke-linecap:butt;stroke-linejoin:miter;stroke-miterlimit:4;stroke-dasharray:3, 1;stroke-dashoffset:0;stroke-opacity:1" />
      <path
         id="path4956"
         d="M -49.88415,-40.594085 L -49.88415,14.970724 L -50.10911,16.545435"
         style="fill:none;fill-rule:evenodd;stroke:#000000;stroke-width:1;stroke-linecap:butt;stroke-linejoin:miter;stroke-miterlimit:4;stroke-dasharray:3, 1;stroke-dashoffset:0;stroke-opacity:1" />
    </g>
  </g>
</svg>
