<?xml version="1.0" encoding="UTF-8" standalone="no"?>
<!-- Created with Inkscape (http://www.inkscape.org/) -->
<svg
   xmlns:dc="http://purl.org/dc/elements/1.1/"
   xmlns:cc="http://creativecommons.org/ns#"
   xmlns:rdf="http://www.w3.org/1999/02/22-rdf-syntax-ns#"
   xmlns:svg="http://www.w3.org/2000/svg"
   xmlns="http://www.w3.org/2000/svg"
   xmlns:sodipodi="http://sodipodi.sourceforge.net/DTD/sodipodi-0.dtd"
   xmlns:inkscape="http://www.inkscape.org/namespaces/inkscape"
   width="41"
   height="41"
   id="svg2"
   sodipodi:version="0.32"
   inkscape:version="0.46"
   sodipodi:docname="pue_diamond_xformer.svg"
   inkscape:output_extension="org.inkscape.output.svg.inkscape"
   version="1.0">
  <defs
     id="defs4">
    <inkscape:perspective
       sodipodi:type="inkscape:persp3d"
       inkscape:vp_x="0 : 526.18109 : 1"
       inkscape:vp_y="0 : 1000 : 0"
       inkscape:vp_z="744.09448 : 526.18109 : 1"
       inkscape:persp3d-origin="372.04724 : 350.78739 : 1"
       id="perspective9" />
  </defs>
  <sodipodi:namedview
     id="base"
     pagecolor="#ffffff"
     bordercolor="#666666"
     borderopacity="1.0"
     gridtolerance="10000"
     guidetolerance="10"
     objecttolerance="10"
     inkscape:pageopacity="0.0"
     inkscape:pageshadow="2"
     inkscape:zoom="11.313709"
     inkscape:cx="-4.5576023"
     inkscape:cy="1027.9911"
     inkscape:document-units="px"
     inkscape:current-layer="layer1"
     showgrid="true"
     inkscape:window-width="1397"
     inkscape:window-height="964"
     inkscape:window-x="1782"
     inkscape:window-y="50">
    <inkscape:grid
       type="xygrid"
       id="grid2383"
       visible="true"
       enabled="true" />
  </sodipodi:namedview>
  <metadata
     id="metadata7">
    <rdf:RDF>
      <cc:Work
         rdf:about="">
        <dc:format>image/svg+xml</dc:format>
        <dc:type
           rdf:resource="http://purl.org/dc/dcmitype/StillImage" />
      </cc:Work>
    </rdf:RDF>
  </metadata>
  <g
     inkscape:label="Layer 1"
     inkscape:groupmode="layer"
     id="layer1"
     transform="translate(0.5,-1.8621826)">
    <path
       style="fill:#00ff00;fill-opacity:1;fill-rule:evenodd;stroke:#000000;stroke-width:1;stroke-linecap:butt;stroke-linejoin:miter;stroke-miterlimit:4;stroke-dasharray:none;stroke-opacity:1"
       d="M 20,2.3621826 L 0,22.362183 L 20,42.362183 L 40,22.362183 L 20,2.3621826 z"
       id="path2392" />
    <path
       sodipodi:type="arc"
       style="fill:none;fill-opacity:1;stroke:#000000;stroke-width:1;stroke-linejoin:miter;stroke-miterlimit:4;stroke-dasharray:none;stroke-opacity:1"
       id="path3157"
       sodipodi:cx="-32.5"
       sodipodi:cy="9.8621826"
       sodipodi:rx="2.5"
       sodipodi:ry="2.5"
       d="M -32.476312,7.3622948 A 2.5,2.5 0 1 1 -32.573326,12.361107"
       transform="translate(46.476312,4.9998878)"
       sodipodi:start="4.7218644"
       sodipodi:end="7.8833164"
       sodipodi:open="true" />
    <path
       sodipodi:type="arc"
       style="fill:none;fill-opacity:1;stroke:#000000;stroke-width:1;stroke-linejoin:miter;stroke-miterlimit:4;stroke-dasharray:none;stroke-opacity:1"
       id="path3161"
       sodipodi:cx="-32.5"
       sodipodi:cy="9.8621826"
       sodipodi:rx="2.5"
       sodipodi:ry="2.5"
       d="M -32.476312,7.3622948 A 2.5,2.5 0 1 1 -32.573326,12.361107"
       transform="translate(46.476312,9.9998878)"
       sodipodi:start="4.7218644"
       sodipodi:end="7.8833164"
       sodipodi:open="true" />
    <path
       sodipodi:type="arc"
       style="fill:none;fill-opacity:1;stroke:#000000;stroke-width:1;stroke-linejoin:miter;stroke-miterlimit:4;stroke-dasharray:none;stroke-opacity:1"
       id="path3163"
       sodipodi:cx="-32.5"
       sodipodi:cy="9.8621826"
       sodipodi:rx="2.5"
       sodipodi:ry="2.5"
       d="M -32.476312,7.3622948 A 2.5,2.5 0 1 1 -32.573326,12.361107"
       transform="translate(46.573326,15.001076)"
       sodipodi:start="4.7218644"
       sodipodi:end="7.8833164"
       sodipodi:open="true" />
    <path
       sodipodi:type="arc"
       style="fill:none;fill-opacity:1;stroke:#000000;stroke-width:1;stroke-linejoin:miter;stroke-miterlimit:4;stroke-dasharray:none;stroke-opacity:1"
       id="path3165"
       sodipodi:cx="-32.5"
       sodipodi:cy="9.8621826"
       sodipodi:rx="2.5"
       sodipodi:ry="2.5"
       d="M -32.476312,7.3622948 A 2.5,2.5 0 1 1 -32.573326,12.361107"
       transform="translate(46.573326,20.001076)"
       sodipodi:start="4.7218644"
       sodipodi:end="7.8833164"
       sodipodi:open="true" />
    <path
       sodipodi:type="arc"
       style="fill:none;fill-opacity:1;stroke:#000000;stroke-width:1;stroke-linejoin:miter;stroke-miterlimit:4;stroke-dasharray:none;stroke-opacity:1"
       id="path3167"
       sodipodi:cx="-32.5"
       sodipodi:cy="9.8621826"
       sodipodi:rx="2.5"
       sodipodi:ry="2.5"
       d="M -32.476312,7.3622948 A 2.5,2.5 0 1 1 -32.573326,12.361107"
       transform="matrix(-1,0,0,1,-6.5733266,4.9986999)"
       sodipodi:start="4.7218644"
       sodipodi:end="7.8833164"
       sodipodi:open="true" />
    <path
       sodipodi:type="arc"
       style="fill:none;fill-opacity:1;stroke:#000000;stroke-width:1;stroke-linejoin:miter;stroke-miterlimit:4;stroke-dasharray:none;stroke-opacity:1"
       id="path3169"
       sodipodi:cx="-32.5"
       sodipodi:cy="9.8621826"
       sodipodi:rx="2.5"
       sodipodi:ry="2.5"
       d="M -32.476312,7.3622948 A 2.5,2.5 0 1 1 -32.573326,12.361107"
       transform="matrix(-1,0,0,1,-6.5733266,9.9987)"
       sodipodi:start="4.7218644"
       sodipodi:end="7.8833164"
       sodipodi:open="true" />
    <path
       sodipodi:type="arc"
       style="fill:none;fill-opacity:1;stroke:#000000;stroke-width:1;stroke-linejoin:miter;stroke-miterlimit:4;stroke-dasharray:none;stroke-opacity:1"
       id="path3171"
       sodipodi:cx="-32.5"
       sodipodi:cy="9.8621826"
       sodipodi:rx="2.5"
       sodipodi:ry="2.5"
       d="M -32.476312,7.3622948 A 2.5,2.5 0 1 1 -32.573326,12.361107"
       transform="matrix(-1,0,0,1,-6.6703406,14.999888)"
       sodipodi:start="4.7218644"
       sodipodi:end="7.8833164"
       sodipodi:open="true" />
    <path
       sodipodi:type="arc"
       style="fill:none;fill-opacity:1;stroke:#000000;stroke-width:1;stroke-linejoin:miter;stroke-miterlimit:4;stroke-dasharray:none;stroke-opacity:1"
       id="path3173"
       sodipodi:cx="-32.5"
       sodipodi:cy="9.8621826"
       sodipodi:rx="2.5"
       sodipodi:ry="2.5"
       d="M -32.476312,7.3622948 A 2.5,2.5 0 1 1 -32.573326,12.361107"
       transform="matrix(-1,0,0,1,-6.6703406,19.999888)"
       sodipodi:start="4.7218644"
       sodipodi:end="7.8833164"
       sodipodi:open="true" />
    <path
       style="fill:none;fill-rule:evenodd;stroke:#000000;stroke-width:1;stroke-linecap:butt;stroke-linejoin:miter;stroke-miterlimit:4;stroke-dasharray:none;stroke-opacity:1"
       d="M 18.902985,12.360995 L 18.902985,32.360995"
       id="path3175" />
    <path
       style="fill:none;fill-rule:evenodd;stroke:#000000;stroke-width:1;stroke-linecap:butt;stroke-linejoin:miter;stroke-miterlimit:4;stroke-dasharray:none;stroke-opacity:1"
       d="M 20.902985,12.360994 L 20.902985,32.360995"
       id="path3177" />
  </g>
</svg>
