<?xml version="1.0" encoding="UTF-8" standalone="no"?>
<!-- Created with Inkscape (http://www.inkscape.org/) -->
<svg
   xmlns:dc="http://purl.org/dc/elements/1.1/"
   xmlns:cc="http://creativecommons.org/ns#"
   xmlns:rdf="http://www.w3.org/1999/02/22-rdf-syntax-ns#"
   xmlns:svg="http://www.w3.org/2000/svg"
   xmlns="http://www.w3.org/2000/svg"
   xmlns:sodipodi="http://sodipodi.sourceforge.net/DTD/sodipodi-0.dtd"
   xmlns:inkscape="http://www.inkscape.org/namespaces/inkscape"
   width="41"
   height="41"
   id="svg2"
   sodipodi:version="0.32"
   inkscape:version="0.46"
   sodipodi:docname="pue_diamond_log10.svg"
   inkscape:output_extension="org.inkscape.output.svg.inkscape"
   version="1.0">
  <defs
     id="defs4">
    <inkscape:perspective
       sodipodi:type="inkscape:persp3d"
       inkscape:vp_x="0 : 526.18109 : 1"
       inkscape:vp_y="0 : 1000 : 0"
       inkscape:vp_z="744.09448 : 526.18109 : 1"
       inkscape:persp3d-origin="372.04724 : 350.78739 : 1"
       id="perspective9" />
  </defs>
  <sodipodi:namedview
     id="base"
     pagecolor="#ffffff"
     bordercolor="#666666"
     borderopacity="1.0"
     gridtolerance="10000"
     guidetolerance="10"
     objecttolerance="10"
     inkscape:pageopacity="0.0"
     inkscape:pageshadow="2"
     inkscape:zoom="18.512195"
     inkscape:cx="8.2510694"
     inkscape:cy="20.5"
     inkscape:document-units="px"
     inkscape:current-layer="layer1"
     showgrid="true"
     inkscape:window-width="1397"
     inkscape:window-height="964"
     inkscape:window-x="1280"
     inkscape:window-y="29">
    <inkscape:grid
       type="xygrid"
       id="grid2383"
       visible="true"
       enabled="true" />
  </sodipodi:namedview>
  <metadata
     id="metadata7">
    <rdf:RDF>
      <cc:Work
         rdf:about="">
        <dc:format>image/svg+xml</dc:format>
        <dc:type
           rdf:resource="http://purl.org/dc/dcmitype/StillImage" />
      </cc:Work>
    </rdf:RDF>
  </metadata>
  <g
     inkscape:label="Layer 1"
     inkscape:groupmode="layer"
     id="layer1"
     transform="translate(0.5,-1.8621822)">
    <path
       style="fill:#00ff00;fill-opacity:1;fill-rule:evenodd;stroke:#000000;stroke-width:1;stroke-linecap:butt;stroke-linejoin:miter;stroke-miterlimit:4;stroke-dasharray:none;stroke-opacity:1"
       d="M 20,2.3621822 L 0,22.362183 L 20,42.362183 L 40,22.362183 L 20,2.3621822 z"
       id="path2392" />
    <path
       d="M 10.5,26.979182 L 9.398,26.979182 L 9.398,17.862182 L 10.5,17.862182 L 10.5,26.979182 z"
       id="path12"
       style="fill:#000000;fill-opacity:1;stroke:none" />
    <path
       d="M 18.258,23.709182 C 18.258,24.775182 17.985,25.617182 17.438,26.234182 C 16.891,26.851182 16.159,27.160182 15.241,27.160182 C 14.315,27.160182 13.58,26.851182 13.035,26.234182 C 12.49,25.617182 12.218,24.775182 12.218,23.709182 C 12.218,22.643182 12.49,21.800182 13.035,21.181182 C 13.58,20.562182 14.315,20.252182 15.241,20.252182 C 16.159,20.252182 16.891,20.562182 17.438,21.181182 C 17.985,21.800182 18.258,22.643182 18.258,23.709182 z M 17.121,23.709182 C 17.121,22.861182 16.955,22.231182 16.623,21.819182 C 16.291,21.407182 15.83,21.201182 15.24,21.201182 C 14.642,21.201182 14.178,21.407182 13.848,21.819182 C 13.518,22.231182 13.353,22.861182 13.353,23.709182 C 13.353,24.529182 13.519,25.151182 13.851,25.575182 C 14.183,25.999182 14.646,26.211182 15.24,26.211182 C 15.826,26.211182 16.286,26.001182 16.62,25.581182 C 16.954,25.161182 17.121,24.538182 17.121,23.709182 z"
       id="path14"
       style="fill:#000000;fill-opacity:1;stroke:none" />
    <path
       d="M 25.272,26.235182 C 25.272,27.344182 25.02,28.159182 24.516,28.678182 C 24.012,29.197182 23.237,29.457182 22.19,29.457182 C 21.842,29.457182 21.503,29.433182 21.173,29.384182 C 20.843,29.335182 20.518,29.266182 20.197,29.176182 L 20.197,28.051182 L 20.256,28.051182 C 20.436,28.121182 20.721,28.208182 21.111,28.312182 C 21.501,28.416182 21.892,28.467182 22.283,28.467182 C 22.658,28.467182 22.969,28.422182 23.215,28.332182 C 23.461,28.242182 23.653,28.117182 23.789,27.957182 C 23.926,27.805182 24.023,27.621182 24.082,27.406182 C 24.141,27.191182 24.17,26.951182 24.17,26.685182 L 24.17,26.087182 C 23.838,26.353182 23.521,26.551182 23.218,26.682182 C 22.915,26.813182 22.53,26.879182 22.061,26.879182 C 21.28,26.879182 20.66,26.597182 20.201,26.032182 C 19.742,25.467182 19.513,24.672182 19.513,23.644182 C 19.513,23.081182 19.592,22.596182 19.75,22.188182 C 19.908,21.780182 20.124,21.427182 20.397,21.130182 C 20.651,20.853182 20.96,20.637182 21.323,20.483182 C 21.686,20.329182 22.048,20.252182 22.407,20.252182 C 22.786,20.252182 23.103,20.290182 23.359,20.366182 C 23.615,20.442182 23.885,20.558182 24.171,20.715182 L 24.241,20.434182 L 25.272,20.434182 L 25.272,26.235182 L 25.272,26.235182 z M 24.17,25.180182 L 24.17,21.612182 C 23.877,21.479182 23.605,21.384182 23.353,21.328182 C 23.101,21.272182 22.85,21.243182 22.6,21.243182 C 21.995,21.243182 21.518,21.446182 21.17,21.852182 C 20.822,22.258182 20.649,22.848182 20.649,23.622182 C 20.649,24.356182 20.778,24.913182 21.036,25.292182 C 21.294,25.671182 21.722,25.860182 22.319,25.860182 C 22.639,25.860182 22.961,25.798182 23.283,25.675182 C 23.605,25.552182 23.901,25.387182 24.17,25.180182 z"
       id="path16"
       style="fill:#000000;fill-opacity:1;stroke:none" />
    <path
       d="M 29.479,26.979182 L 27.118,26.979182 L 27.118,26.534182 L 28.026,26.534182 L 28.026,23.610182 L 27.118,23.610182 L 27.118,23.212182 C 27.241,23.212182 27.373,23.202182 27.514,23.181182 C 27.655,23.161182 27.761,23.131182 27.833,23.092182 C 27.923,23.043182 27.994,22.982182 28.045,22.905182 C 28.097,22.831182 28.127,22.729182 28.134,22.602182 L 28.588,22.602182 L 28.588,26.534182 L 29.479,26.534182 L 29.479,26.979182 L 29.479,26.979182 z"
       id="path18"
       style="fill:#000000;fill-opacity:1;stroke:none" />
    <path
       d="M 33.536,24.796182 C 33.536,25.579182 33.413,26.154182 33.168,26.520182 C 32.923,26.887182 32.543,27.070182 32.027,27.070182 C 31.504,27.070182 31.121,26.884182 30.88,26.513182 C 30.639,26.142182 30.518,25.572182 30.518,24.802182 C 30.518,24.027182 30.64,23.454182 30.884,23.084182 C 31.128,22.714182 31.509,22.528182 32.027,22.528182 C 32.55,22.528182 32.933,22.716182 33.174,23.091182 C 33.416,23.469182 33.536,24.037182 33.536,24.796182 z M 32.766,26.126182 C 32.834,25.968182 32.881,25.781182 32.905,25.568182 C 32.929,25.353182 32.942,25.096182 32.942,24.796182 C 32.942,24.499182 32.93,24.241182 32.905,24.023182 C 32.88,23.805182 32.833,23.619182 32.763,23.466182 C 32.695,23.316182 32.601,23.202182 32.483,23.126182 C 32.365,23.050182 32.213,23.012182 32.027,23.012182 C 31.843,23.012182 31.692,23.050182 31.571,23.126182 C 31.45,23.202182 31.356,23.317182 31.285,23.472182 C 31.219,23.617182 31.173,23.805182 31.149,24.037182 C 31.125,24.269182 31.112,24.524182 31.112,24.802182 C 31.112,25.107182 31.123,25.362182 31.144,25.567182 C 31.165,25.772182 31.211,25.956182 31.282,26.118182 C 31.346,26.270182 31.438,26.387182 31.556,26.467182 C 31.674,26.547182 31.831,26.587182 32.026,26.587182 C 32.21,26.587182 32.362,26.549182 32.483,26.473182 C 32.604,26.397182 32.699,26.281182 32.766,26.126182 z"
       id="path20"
       style="fill:#000000;fill-opacity:1;stroke:none" />
  </g>
</svg>
