<?xml version="1.0" encoding="UTF-8" standalone="no"?>
<!-- Created with Inkscape (http://www.inkscape.org/) -->
<svg
   xmlns:dc="http://purl.org/dc/elements/1.1/"
   xmlns:cc="http://creativecommons.org/ns#"
   xmlns:rdf="http://www.w3.org/1999/02/22-rdf-syntax-ns#"
   xmlns:svg="http://www.w3.org/2000/svg"
   xmlns="http://www.w3.org/2000/svg"
   xmlns:sodipodi="http://sodipodi.sourceforge.net/DTD/sodipodi-0.dtd"
   xmlns:inkscape="http://www.inkscape.org/namespaces/inkscape"
   width="150.42267"
   height="159.83699"
   id="svg2"
   sodipodi:version="0.32"
   inkscape:version="0.46"
   sodipodi:docname="rack-intakexhaust-topmonitoring-ipmi.svg"
   inkscape:output_extension="org.inkscape.output.svg.inkscape"
   version="1.0">
  <defs
     id="defs4">
    <inkscape:perspective
       sodipodi:type="inkscape:persp3d"
       inkscape:vp_x="0 : 526.18109 : 1"
       inkscape:vp_y="0 : 1000 : 0"
       inkscape:vp_z="744.09448 : 526.18109 : 1"
       inkscape:persp3d-origin="372.04724 : 350.78739 : 1"
       id="perspective10" />
  </defs>
  <sodipodi:namedview
     id="base"
     pagecolor="#ffffff"
     bordercolor="#666666"
     borderopacity="1.0"
     gridtolerance="10000"
     guidetolerance="10"
     objecttolerance="10"
     inkscape:pageopacity="0.0"
     inkscape:pageshadow="2"
     inkscape:zoom="4.8236644"
     inkscape:cx="126.20867"
     inkscape:cy="92.721923"
     inkscape:document-units="px"
     inkscape:current-layer="layer1"
     showgrid="false"
     inkscape:window-width="1680"
     inkscape:window-height="978"
     inkscape:window-x="1805"
     inkscape:window-y="64" />
  <metadata
     id="metadata7">
    <rdf:RDF>
      <cc:Work
         rdf:about="">
        <dc:format>image/svg+xml</dc:format>
        <dc:type
           rdf:resource="http://purl.org/dc/dcmitype/StillImage" />
      </cc:Work>
    </rdf:RDF>
  </metadata>
  <g
     inkscape:label="Layer 1"
     inkscape:groupmode="layer"
     id="layer1">
    <rect
       style="fill:#2580EF;fill-opacity:1;stroke:#000000;stroke-width:1.81885469;stroke-linecap:butt;stroke-linejoin:miter;stroke-miterlimit:4;stroke-dasharray:none;stroke-opacity:1"
       id="rect3155"
       width="110.01228"
       height="127.04964"
       x="39.499718"
       y="3.4458194" />
    <rect
       style="fill:#2580EF;fill-opacity:0.8627451;stroke:#000000;stroke-width:1.82142496;stroke-linecap:butt;stroke-linejoin:miter;stroke-miterlimit:4;stroke-dasharray:none;stroke-opacity:1"
       id="rect2383"
       width="110.0097"
       height="127.41194"
       x="0.90947771"
       y="31.568123" />
    <rect
       style="fill:#2580EF;fill-opacity:0.8627451;stroke:#000000;stroke-width:2.59967685;stroke-linecap:butt;stroke-linejoin:miter;stroke-miterlimit:4;stroke-dasharray:none;stroke-opacity:1"
       id="rect3183"
       width="109.68782"
       height="46.928261"
       x="44.022655"
       y="6.0967555"
       transform="matrix(1,0,-0.8060385,0.5918631,0,0)" />
    <rect
       style="fill:#2580EF;fill-opacity:0.8627451;stroke:#000000;stroke-width:2.56831932;stroke-linecap:butt;stroke-linejoin:miter;stroke-miterlimit:4;stroke-dasharray:none;stroke-opacity:1"
       id="rect3185"
       width="108.07054"
       height="46.488426"
       x="215.22893"
       y="218.99612"
       transform="matrix(1,0,-0.8016676,0.5977701,0,0)" />
    <path
       style="fill:none;fill-rule:evenodd;stroke:#000000;stroke-width:4;stroke-linecap:butt;stroke-linejoin:miter;stroke-miterlimit:4;stroke-dasharray:none;stroke-opacity:1"
       d="M 50.351887,31.544649 C 86.313027,2.7515801 86.313027,2.7515801 86.313027,2.7515801"
       id="path2409" />
    <path
       sodipodi:type="arc"
       style="fill:#ff0000;fill-opacity:1;stroke:#000000;stroke-width:1.62594628;stroke-linecap:butt;stroke-linejoin:miter;stroke-miterlimit:4;stroke-dasharray:none;stroke-opacity:1"
       id="path3283"
       sodipodi:cx="108.23937"
       sodipodi:cy="202.89532"
       sodipodi:rx="7.4281926"
       sodipodi:ry="8.4893627"
       d="M 115.66756,202.89532 A 7.4281926,8.4893627 0 1 1 100.81118,202.89532 A 7.4281926,8.4893627 0 1 1 115.66756,202.89532 z"
       transform="matrix(1.3016434,0,0,1.1624,-54.327385,-224.0544)" />
    <path
       sodipodi:type="arc"
       style="fill:#0000ff;fill-opacity:1;stroke:#000000;stroke-width:1.51410758;stroke-linecap:butt;stroke-linejoin:miter;stroke-miterlimit:4;stroke-dasharray:none;stroke-opacity:1"
       id="path3208"
       sodipodi:cx="108.23937"
       sodipodi:cy="202.89532"
       sodipodi:rx="7.4281926"
       sodipodi:ry="8.4893627"
       d="M 115.66756,202.89532 A 7.4281926,8.4893627 0 1 1 100.81118,202.89532 A 7.4281926,8.4893627 0 1 1 115.66756,202.89532 z"
       transform="matrix(1.4226115,0,0,1.2264792,-103.76941,-204.65058)" />
  </g>
</svg>