<?xml version="1.0" encoding="UTF-8" standalone="no"?>
<!-- Created with Inkscape (http://www.inkscape.org/) -->
<svg
   xmlns:dc="http://purl.org/dc/elements/1.1/"
   xmlns:cc="http://creativecommons.org/ns#"
   xmlns:rdf="http://www.w3.org/1999/02/22-rdf-syntax-ns#"
   xmlns:svg="http://www.w3.org/2000/svg"
   xmlns="http://www.w3.org/2000/svg"
   xmlns:sodipodi="http://sodipodi.sourceforge.net/DTD/sodipodi-0.dtd"
   xmlns:inkscape="http://www.inkscape.org/namespaces/inkscape"
   width="183"
   height="113"
   id="svg2"
   sodipodi:version="0.32"
   inkscape:version="0.46"
   sodipodi:docname="rack-hwing1-0.svg"
   inkscape:output_extension="org.inkscape.output.svg.inkscape"
   version="1.0">
  <sodipodi:namedview
     id="base"
     pagecolor="#ffffff"
     bordercolor="#666666"
     borderopacity="1.0"
     gridtolerance="10000"
     guidetolerance="10"
     objecttolerance="10"
     inkscape:pageopacity="0.0"
     inkscape:pageshadow="2"
     inkscape:zoom="3.2350135"
     inkscape:cx="83.607242"
     inkscape:cy="45.383645"
     inkscape:document-units="px"
     inkscape:current-layer="layer1"
     showgrid="false"
     inkscape:window-width="1625"
     inkscape:window-height="884"
     inkscape:window-x="1981"
     inkscape:window-y="75"
     inkscape:snap-global="false"
     showguides="true"
     inkscape:guide-bbox="true">
    <inkscape:grid
       enabled="true"
       visible="true"
       id="grid2412"
       type="xygrid" />
  </sodipodi:namedview>
  <defs
     id="defs4">
    <inkscape:perspective
       id="perspective22"
       inkscape:persp3d-origin="90.178139 : 52.451462 : 1"
       inkscape:vp_z="180.35628 : 78.677193 : 1"
       inkscape:vp_y="0 : 1000 : 0"
       inkscape:vp_x="0 : 78.677193 : 1"
       sodipodi:type="inkscape:persp3d" />
  </defs>
  <metadata
     id="metadata7">
    <rdf:RDF>
      <cc:Work
         rdf:about="">
        <dc:format>image/svg+xml</dc:format>
        <dc:type
           rdf:resource="http://purl.org/dc/dcmitype/StillImage" />
      </cc:Work>
    </rdf:RDF>
  </metadata>
  <g
     transform="translate(-0.6437169,-0.2629669)"
     id="layer1"
     inkscape:groupmode="layer"
     inkscape:label="Layer 1">
    <rect
       y="1.3273869"
       x="1.6851025"
       height="111.09467"
       width="180.7845"
       id="rect3155"
       style="fill:#b9b9b9;fill-opacity:1;stroke:#000000;stroke-width:2.1803081;stroke-linecap:butt;stroke-linejoin:miter;stroke-miterlimit:4;stroke-dasharray:none;stroke-opacity:1" />
    <rect
       y="2.0221329"
       x="1.7188282"
       height="109.92538"
       width="35.252907"
       id="rect2383"
       style="fill:#e32b24;fill-opacity:1;fill-rule:nonzero;stroke:#000000;stroke-width:0.95771700000000004;stroke-linecap:butt;stroke-linejoin:miter;stroke-miterlimit:4;stroke-dasharray:none;stroke-opacity:1" />
    <rect
       y="1.9753914"
       x="146.96712"
       height="109.81198"
       width="35.253395"
       id="rect4644"
       style="fill:#188abc;fill-opacity:1;stroke:#000000;stroke-width:0.95722954999999998;stroke-linecap:butt;stroke-linejoin:miter;stroke-miterlimit:4;stroke-dasharray:none;stroke-opacity:1" />
    <rect
       style="fill:#e32b24;fill-opacity:1;stroke:none;stroke-width:0;stroke-linejoin:miter;stroke-miterlimit:4;stroke-dasharray:none;stroke-opacity:1"
       id="rect16645"
       width="13.251366"
       height="17.668488"
       x="-79.779358"
       y="10.511038"
       transform="matrix(0,-1,1,0,0,0)" />
    <rect
       style="fill:#e32b24;fill-opacity:1;stroke:none;stroke-width:0;stroke-linejoin:miter;stroke-miterlimit:4;stroke-dasharray:none;stroke-opacity:1"
       id="rect16647"
       width="13.251366"
       height="17.668488"
       x="-34.096306"
       y="10.511038"
       transform="matrix(0,-1,1,0,0,0)" />
    <rect
       style="fill:#188abc;fill-opacity:1;stroke:none;stroke-width:0;stroke-linejoin:miter;stroke-miterlimit:4;stroke-dasharray:none;stroke-opacity:1"
       id="rect16681"
       width="13.251366"
       height="17.668488"
       x="-79.779358"
       y="155.75957"
       transform="matrix(0,-1,1,0,0,0)" />
    <rect
       style="fill:#000000;fill-opacity:1;stroke:none;stroke-width:0;stroke-linejoin:miter;stroke-miterlimit:4;stroke-dasharray:none;stroke-opacity:1"
       id="rect16685"
       width="13.251366"
       height="17.668488"
       x="-34.096306"
       y="155.75957"
       transform="matrix(0,-1,1,0,0,0)" />
    <path
       style="fill:#00ffff;fill-opacity:1;fill-rule:nonzero;stroke:none;stroke-width:0.45451739;stroke-linejoin:miter;stroke-miterlimit:4;stroke-dasharray:none;stroke-opacity:1"
       d="M 164.34769,21.787882 C 164.34769,21.787882 163.38282,25.813201 161.88807,28.021224 C 161.62318,28.479799 161.48989,29.087957 161.47152,29.746923 C 161.47152,31.423044 162.83026,32.781772 164.50638,32.781772 C 166.18249,32.781772 167.54123,31.423044 167.54123,29.746923 C 167.54123,29.394929 167.47798,29.05969 167.36766,28.745224 C 165.93576,26.356689 164.65538,24.77181 164.34769,21.787882 z"
       id="path16687"
       sodipodi:nodetypes="cccsscc" />
  </g>
</svg>
