<?xml version="1.0" encoding="UTF-8" standalone="no"?>
<!-- Created with Inkscape (http://www.inkscape.org/) -->
<svg
   xmlns:dc="http://purl.org/dc/elements/1.1/"
   xmlns:cc="http://creativecommons.org/ns#"
   xmlns:rdf="http://www.w3.org/1999/02/22-rdf-syntax-ns#"
   xmlns:svg="http://www.w3.org/2000/svg"
   xmlns="http://www.w3.org/2000/svg"
   xmlns:sodipodi="http://sodipodi.sourceforge.net/DTD/sodipodi-0.dtd"
   xmlns:inkscape="http://www.inkscape.org/namespaces/inkscape"
   width="150.42267"
   height="159.83698"
   id="svg2"
   sodipodi:version="0.32"
   inkscape:version="0.46"
   sodipodi:docname="rack-lhs-endcap-nrt-6.svg"
   inkscape:output_extension="org.inkscape.output.svg.inkscape"
   version="1.0">
  <defs
     id="defs4">
    <inkscape:perspective
       sodipodi:type="inkscape:persp3d"
       inkscape:vp_x="0 : 526.18109 : 1"
       inkscape:vp_y="0 : 1000 : 0"
       inkscape:vp_z="744.09448 : 526.18109 : 1"
       inkscape:persp3d-origin="372.04724 : 350.78739 : 1"
       id="perspective10" />
  </defs>
  <sodipodi:namedview
     id="base"
     pagecolor="#ffffff"
     bordercolor="#666666"
     borderopacity="1.0"
     gridtolerance="10000"
     guidetolerance="10"
     objecttolerance="10"
     inkscape:pageopacity="0.0"
     inkscape:pageshadow="2"
     inkscape:zoom="4.8236646"
     inkscape:cx="75.211331"
     inkscape:cy="79.918484"
     inkscape:document-units="px"
     inkscape:current-layer="layer1"
     showgrid="false"
     inkscape:window-width="1680"
     inkscape:window-height="978"
     inkscape:window-x="151"
     inkscape:window-y="102" />
  <metadata
     id="metadata7">
    <rdf:RDF>
      <cc:Work
         rdf:about="">
        <dc:format>image/svg+xml</dc:format>
        <dc:type
           rdf:resource="http://purl.org/dc/dcmitype/StillImage" />
      </cc:Work>
    </rdf:RDF>
  </metadata>
  <g
     inkscape:label="Layer 1"
     inkscape:groupmode="layer"
     id="layer1"
     >
    <rect
       style="fill:#6fbb50;fill-opacity:1;stroke:#000000;stroke-width:1.82142496;stroke-linecap:butt;stroke-linejoin:miter;stroke-miterlimit:4;stroke-dasharray:none;stroke-opacity:1"
       id="rect2383"
       width="110.0097"
       height="127.41194"
       x="1.5544294"
       y="30.02446" />
    <rect
       style="fill:#6fbb50;fill-opacity:0.70588235;stroke:#000000;stroke-width:1.81885469;stroke-linecap:butt;stroke-linejoin:miter;stroke-miterlimit:4;stroke-dasharray:none;stroke-opacity:1"
       id="rect3155"
       width="110.01228"
       height="127.04964"
       x="40.144669"
       y="1.9021569" />
    <rect
       style="fill:#6fbb50;fill-opacity:0.70588235;stroke:#000000;stroke-width:2.59967685;stroke-linecap:butt;stroke-linejoin:miter;stroke-miterlimit:4;stroke-dasharray:none;stroke-opacity:1"
       id="rect3183"
       width="109.68782"
       height="46.928261"
       x="42.565346"
       y="3.4886143"
       transform="matrix(1,0,-0.8060385,0.5918631,0,0)" />
    <path
       style="fill:none;fill-rule:evenodd;stroke:#646464;stroke-width:3.92881656;stroke-linecap:butt;stroke-linejoin:miter;stroke-miterlimit:4;stroke-dasharray:none;stroke-opacity:1"
       d="M 86.481852,99.636615 C 86.692586,1.0095383 86.692586,1.0095383 86.692586,1.0095383"
       id="path2405" />
    <path
       style="fill:none;fill-rule:evenodd;stroke:#646464;stroke-width:4;stroke-linecap:butt;stroke-linejoin:miter;stroke-miterlimit:4;stroke-dasharray:none;stroke-opacity:1"
       d="M 50.996839,30.000986 C 86.957979,1.2079177 86.957979,1.2079177 86.957979,1.2079177"
       id="path2409" />
    <rect
       style="fill:#6fbb50;fill-opacity:0.70588235;stroke:#000000;stroke-width:2.56831932;stroke-linecap:butt;stroke-linejoin:miter;stroke-miterlimit:4;stroke-dasharray:none;stroke-opacity:1"
       id="rect3185"
       width="108.07054"
       height="46.488426"
       x="213.80368"
       y="216.41376"
       transform="matrix(1,0,-0.8016676,0.5977701,0,0)" />
    <path
       style="fill:none;fill-rule:evenodd;stroke:#646464;stroke-width:3.86106491;stroke-linecap:butt;stroke-linejoin:miter;stroke-miterlimit:4;stroke-dasharray:none;stroke-dashoffset:0;stroke-opacity:1"
       d="M 52.860009,156.95158 C 51.281229,29.799198 51.281229,29.799198 51.281229,29.799198"
       id="path2403" />
    <path
       sodipodi:type="arc"
       style="fill:#0000ff;fill-opacity:1;stroke:#000000;stroke-width:1.51410758;stroke-linecap:butt;stroke-linejoin:miter;stroke-miterlimit:4;stroke-dasharray:none;stroke-opacity:1"
       id="path3277"
       sodipodi:cx="108.23937"
       sodipodi:cy="202.89532"
       sodipodi:rx="7.4281926"
       sodipodi:ry="8.4893627"
       d="M 115.66756,202.89532 A 7.4281926,8.4893627 0 1 1 100.81118,202.89532 A 7.4281926,8.4893627 0 1 1 115.66756,202.89532 z"
       transform="matrix(1.4226115,0,0,1.2264792,-103.26407,-158.67673)" />
    <path
       sodipodi:type="arc"
       style="fill:#0000ff;fill-opacity:1;stroke:#000000;stroke-width:1.51410758;stroke-linecap:butt;stroke-linejoin:miter;stroke-miterlimit:4;stroke-dasharray:none;stroke-opacity:1"
       id="path3279"
       sodipodi:cx="108.23937"
       sodipodi:cy="202.89532"
       sodipodi:rx="7.4281926"
       sodipodi:ry="8.4893627"
       d="M 115.66756,202.89532 A 7.4281926,8.4893627 0 1 1 100.81118,202.89532 A 7.4281926,8.4893627 0 1 1 115.66756,202.89532 z"
       transform="matrix(1.4226115,0,0,1.2264792,-103.62896,-101.39036)" />
    <path
       sodipodi:type="arc"
       style="fill:#ff0000;fill-opacity:1;stroke:#000000;stroke-width:1.62594628;stroke-linecap:butt;stroke-linejoin:miter;stroke-miterlimit:4;stroke-dasharray:none;stroke-opacity:1"
       id="path3281"
       sodipodi:cx="108.23937"
       sodipodi:cy="202.89532"
       sodipodi:rx="7.4281926"
       sodipodi:ry="8.4893627"
       d="M 115.66756,202.89532 A 7.4281926,8.4893627 0 1 1 100.81118,202.89532 A 7.4281926,8.4893627 0 1 1 115.66756,202.89532 z"
       transform="matrix(1.3016434,0,0,1.1624,-54.412195,-144.21584)" />
    <path
       sodipodi:type="arc"
       style="fill:#ff0000;fill-opacity:1;stroke:#000000;stroke-width:1.62594628;stroke-linecap:butt;stroke-linejoin:miter;stroke-miterlimit:4;stroke-dasharray:none;stroke-opacity:1"
       id="path3283"
       sodipodi:cx="108.23937"
       sodipodi:cy="202.89532"
       sodipodi:rx="7.4281926"
       sodipodi:ry="8.4893627"
       d="M 115.66756,202.89532 A 7.4281926,8.4893627 0 1 1 100.81118,202.89532 A 7.4281926,8.4893627 0 1 1 115.66756,202.89532 z"
       transform="matrix(1.3016434,0,0,1.1624,-53.682433,-225.59807)" />
    <path
       sodipodi:type="arc"
       style="fill:#0000ff;fill-opacity:1;stroke:#000000;stroke-width:1.51410758;stroke-linecap:butt;stroke-linejoin:miter;stroke-miterlimit:4;stroke-dasharray:none;stroke-opacity:1"
       id="path3208"
       sodipodi:cx="108.23937"
       sodipodi:cy="202.89532"
       sodipodi:rx="7.4281926"
       sodipodi:ry="8.4893627"
       d="M 115.66756,202.89532 A 7.4281926,8.4893627 0 1 1 100.81118,202.89532 A 7.4281926,8.4893627 0 1 1 115.66756,202.89532 z"
       transform="matrix(1.4226115,0,0,1.2264792,-103.12446,-206.19425)" />
    <path
       style="fill:none;fill-rule:evenodd;stroke:#646464;stroke-width:3.86221266;stroke-linecap:butt;stroke-linejoin:miter;stroke-miterlimit:4;stroke-dasharray:none;stroke-opacity:1"
       d="M 132.31325,86.609214 C 132.59059,14.186986 132.59059,14.186986 132.59059,14.186986"
       id="path2396" />
    <path
       sodipodi:type="arc"
       style="fill:#ad0099;fill-opacity:1;stroke:#000000;stroke-width:1.62594628;stroke-linecap:butt;stroke-linejoin:miter;stroke-miterlimit:4;stroke-dasharray:none;stroke-opacity:1"
       id="path3168"
       sodipodi:cx="108.23937"
       sodipodi:cy="202.89532"
       sodipodi:rx="7.4281926"
       sodipodi:ry="8.4893627"
       d="M 115.66756,202.89532 A 7.4281926,8.4893627 0 1 1 100.81118,202.89532 A 7.4281926,8.4893627 0 1 1 115.66756,202.89532 z"
       transform="matrix(1.2686997,-0.2657134,0,1.3457367,-4.5064614,-163.59978)" />
    <path
       style="fill:none;fill-rule:evenodd;stroke:#646464;stroke-width:3.65241122;stroke-linecap:butt;stroke-linejoin:miter;stroke-miterlimit:4;stroke-dasharray:none;stroke-opacity:1"
       d="M 133.55689,13.058896 C 96.683223,12.571754 96.683223,12.571754 96.683223,12.571754"
       id="path2397" />
  </g>
</svg>
