<?xml version="1.0" encoding="UTF-8" standalone="no"?>
<!-- Created with Inkscape (http://www.inkscape.org/) -->
<svg
   xmlns:dc="http://purl.org/dc/elements/1.1/"
   xmlns:cc="http://creativecommons.org/ns#"
   xmlns:rdf="http://www.w3.org/1999/02/22-rdf-syntax-ns#"
   xmlns:svg="http://www.w3.org/2000/svg"
   xmlns="http://www.w3.org/2000/svg"
   xmlns:sodipodi="http://sodipodi.sourceforge.net/DTD/sodipodi-0.dtd"
   xmlns:inkscape="http://www.inkscape.org/namespaces/inkscape"
   width="180.35628"
   height="157.35439"
   id="svg2"
   sodipodi:version="0.32"
   inkscape:version="0.46"
   sodipodi:docname="sc-lhs-endcap-rt-6.svg"
   inkscape:output_extension="org.inkscape.output.svg.inkscape"
   version="1.0">
  <defs
     id="defs4">
    <inkscape:perspective
       sodipodi:type="inkscape:persp3d"
       inkscape:vp_x="0 : 78.677193 : 1"
       inkscape:vp_y="0 : 1000 : 0"
       inkscape:vp_z="180.35628 : 78.677193 : 1"
       inkscape:persp3d-origin="90.178139 : 52.451462 : 1"
       id="perspective22" />
    <inkscape:perspective
       id="perspective10"
       inkscape:persp3d-origin="372.04724 : 350.78739 : 1"
       inkscape:vp_z="744.09448 : 526.18109 : 1"
       inkscape:vp_y="0 : 1000 : 0"
       inkscape:vp_x="0 : 526.18109 : 1"
       sodipodi:type="inkscape:persp3d" />
  </defs>
  <sodipodi:namedview
     id="base"
     pagecolor="#ffffff"
     bordercolor="#666666"
     borderopacity="1.0"
     gridtolerance="10000"
     guidetolerance="10"
     objecttolerance="10"
     inkscape:pageopacity="0.0"
     inkscape:pageshadow="2"
     inkscape:zoom="3.5095965"
     inkscape:cx="142.34914"
     inkscape:cy="94.79544"
     inkscape:document-units="px"
     inkscape:current-layer="layer1"
     showgrid="true"
     inkscape:window-width="1680"
     inkscape:window-height="988"
     inkscape:window-x="1680"
     inkscape:window-y="24">
    <inkscape:grid
       type="xygrid"
       id="grid2412"
       visible="true"
       enabled="true" />
  </sodipodi:namedview>
  <metadata
     id="metadata7">
    <rdf:RDF>
      <cc:Work
         rdf:about="">
        <dc:format>image/svg+xml</dc:format>
        <dc:type
           rdf:resource="http://purl.org/dc/dcmitype/StillImage" />
      </cc:Work>
    </rdf:RDF>
  </metadata>
  <g
     inkscape:label="Layer 1"
     inkscape:groupmode="layer"
     id="layer1"
     transform="translate(-0.6437169,-0.2629669)">
    <rect
       style="fill:#ff9900;fill-opacity:1;stroke:#000000;stroke-width:1.81885469;stroke-linecap:butt;stroke-linejoin:miter;stroke-miterlimit:4;stroke-dasharray:none;stroke-opacity:1"
       id="rect3155"
       width="110.01228"
       height="127.04964"
       x="40.144669"
       y="1.1723943" />
    <rect
       style="fill:#ff9900;fill-opacity:0.8627451;stroke:#000000;stroke-width:2.59967685;stroke-linecap:butt;stroke-linejoin:miter;stroke-miterlimit:4;stroke-dasharray:none;stroke-opacity:1"
       id="rect3183"
       width="109.68782"
       height="46.928261"
       x="41.571507"
       y="2.2556221"
       transform="matrix(1,0,-0.8060385,0.5918631,0,0)" />
    <rect
       style="fill:#ff9900;fill-opacity:0.8627451;stroke:#000000;stroke-width:2.56831932;stroke-linecap:butt;stroke-linejoin:miter;stroke-miterlimit:4;stroke-dasharray:none;stroke-opacity:1"
       id="rect3185"
       width="108.07054"
       height="46.488426"
       x="212.825"
       y="215.19295"
       transform="matrix(1,0,-0.8016676,0.5977701,0,0)" />
    <rect
       style="fill:#ff9900;fill-opacity:0.8627451;stroke:#000000;stroke-width:1.82142496;stroke-linecap:butt;stroke-linejoin:miter;stroke-miterlimit:4;stroke-dasharray:none;stroke-opacity:1"
       id="rect2383"
       width="110.0097"
       height="127.41194"
       x="1.5544294"
       y="29.294697" />
    <path
       style="fill:#008080;fill-opacity:1;fill-rule:evenodd;stroke:#000000;stroke-width:2;stroke-linecap:butt;stroke-linejoin:miter;stroke-miterlimit:4;stroke-dasharray:none;stroke-opacity:1"
       d="M 150,115.36218 C 134,115.36218 120,107.36218 120,87.362183 L 120,57.362183 L 130,57.362183 L 130,37.362181 L 140,37.362181 L 140,57.362183 L 160,57.362183 L 160,37.362181 L 170,37.362181 L 170,57.362183 L 180,57.362183 L 180,87.362183 C 180,107.36218 166,115.36218 150,115.36218 z"
       id="path3177"
       sodipodi:nodetypes="cccccccccccccc" />
    <path
       id="path3328"
       d="M 86.477839,94.897178 C 86.696599,0.27576332 86.696599,0.27576332 86.696599,0.27576332"
       style="fill:none;fill-rule:evenodd;stroke:#646464;stroke-width:3.92079186;stroke-linecap:butt;stroke-linejoin:miter;stroke-miterlimit:4;stroke-dasharray:none;stroke-opacity:1" />
    <path
       id="path3330"
       d="M 50.996839,29.271223 C 86.957979,0.47815503 86.957979,0.47815503 86.957979,0.47815503"
       style="fill:none;fill-rule:evenodd;stroke:#646464;stroke-width:4;stroke-linecap:butt;stroke-linejoin:miter;stroke-miterlimit:4;stroke-dasharray:none;stroke-opacity:1" />
    <path
       id="path3334"
       d="M 52.860009,156.22182 C 51.281229,29.069435 51.281229,29.069435 51.281229,29.069435"
       style="fill:none;fill-rule:evenodd;stroke:#646464;stroke-width:3.86106491;stroke-linecap:butt;stroke-linejoin:miter;stroke-miterlimit:4;stroke-dasharray:none;stroke-dashoffset:0;stroke-opacity:1" />
    <path
       transform="matrix(1.4226115,0,0,1.2264792,-103.26407,-159.40649)"
       d="M 115.66756,202.89532 A 7.4281926,8.4893627 0 1 1 100.81118,202.89532 A 7.4281926,8.4893627 0 1 1 115.66756,202.89532 z"
       sodipodi:ry="8.4893627"
       sodipodi:rx="7.4281926"
       sodipodi:cy="202.89532"
       sodipodi:cx="108.23937"
       id="path3336"
       style="fill:#0000ff;fill-opacity:1;stroke:#000000;stroke-width:1.51410758;stroke-linecap:butt;stroke-linejoin:miter;stroke-miterlimit:4;stroke-dasharray:none;stroke-opacity:1"
       sodipodi:type="arc" />
    <path
       transform="matrix(1.4226115,0,0,1.2264792,-103.62896,-102.12012)"
       d="M 115.66756,202.89532 A 7.4281926,8.4893627 0 1 1 100.81118,202.89532 A 7.4281926,8.4893627 0 1 1 115.66756,202.89532 z"
       sodipodi:ry="8.4893627"
       sodipodi:rx="7.4281926"
       sodipodi:cy="202.89532"
       sodipodi:cx="108.23937"
       id="path3338"
       style="fill:#0000ff;fill-opacity:1;stroke:#000000;stroke-width:1.51410758;stroke-linecap:butt;stroke-linejoin:miter;stroke-miterlimit:4;stroke-dasharray:none;stroke-opacity:1"
       sodipodi:type="arc" />
    <path
       transform="matrix(1.3016434,0,0,1.1624,-54.412195,-147.49976)"
       d="M 115.66756,202.89532 A 7.4281926,8.4893627 0 1 1 100.81118,202.89532 A 7.4281926,8.4893627 0 1 1 115.66756,202.89532 z"
       sodipodi:ry="8.4893627"
       sodipodi:rx="7.4281926"
       sodipodi:cy="202.89532"
       sodipodi:cx="108.23937"
       id="path3340"
       style="fill:#ff0000;fill-opacity:1;stroke:#000000;stroke-width:1.62594628;stroke-linecap:butt;stroke-linejoin:miter;stroke-miterlimit:4;stroke-dasharray:none;stroke-opacity:1"
       sodipodi:type="arc" />
    <path
       transform="matrix(1.4226115,0,0,1.2264792,-103.12446,-206.92401)"
       d="M 115.66756,202.89532 A 7.4281926,8.4893627 0 1 1 100.81118,202.89532 A 7.4281926,8.4893627 0 1 1 115.66756,202.89532 z"
       sodipodi:ry="8.4893627"
       sodipodi:rx="7.4281926"
       sodipodi:cy="202.89532"
       sodipodi:cx="108.23937"
       id="path3342"
       style="fill:#0000ff;fill-opacity:1;stroke:#000000;stroke-width:1.51410758;stroke-linecap:butt;stroke-linejoin:miter;stroke-miterlimit:4;stroke-dasharray:none;stroke-opacity:1"
       sodipodi:type="arc" />
    <path
       id="path3248"
       d="M 130.86335,92.985002 C 131.12143,14.379055 131.12143,14.379055 131.12143,14.379055"
       style="fill:none;fill-rule:evenodd;stroke:#646464;stroke-width:3.88147426;stroke-linecap:butt;stroke-linejoin:miter;stroke-miterlimit:4;stroke-dasharray:none;stroke-opacity:1" />
    <path
       transform="matrix(1.4299493,-0.2722579,0,1.3788818,-22.324898,-167.06223)"
       d="M 115.66756,202.89532 A 7.4281926,8.4893627 0 1 1 100.81118,202.89532 A 7.4281926,8.4893627 0 1 1 115.66756,202.89532 z"
       sodipodi:ry="8.4893627"
       sodipodi:rx="7.4281926"
       sodipodi:cy="202.89532"
       sodipodi:cx="108.23937"
       id="path3246"
       style="fill:#9900ad;fill-opacity:1;stroke:#000000;stroke-width:1.62594628;stroke-linecap:butt;stroke-linejoin:miter;stroke-miterlimit:4;stroke-dasharray:none;stroke-opacity:1"
       sodipodi:type="arc" />
    <path
       id="path2394"
       d="M 129.82181,15.526821 C 67.214078,15.212167 67.214078,15.212167 67.214078,15.212167"
       style="fill:none;fill-rule:evenodd;stroke:#646464;stroke-width:3.82490301;stroke-linecap:butt;stroke-linejoin:miter;stroke-miterlimit:4;stroke-dasharray:none;stroke-opacity:1" />
    <path
       transform="matrix(1.3016434,0,0,1.1624,-53.682433,-226.32783)"
       d="M 115.66756,202.89532 A 7.4281926,8.4893627 0 1 1 100.81118,202.89532 A 7.4281926,8.4893627 0 1 1 115.66756,202.89532 z"
       sodipodi:ry="8.4893627"
       sodipodi:rx="7.4281926"
       sodipodi:cy="202.89532"
       sodipodi:cx="108.23937"
       id="path3347"
       style="fill:#ff0000;fill-opacity:1;stroke:#000000;stroke-width:1.62594628;stroke-linecap:butt;stroke-linejoin:miter;stroke-miterlimit:4;stroke-dasharray:none;stroke-opacity:1"
       sodipodi:type="arc" />
    <path
       style="fill:none;fill-rule:evenodd;stroke:#ffffff;stroke-width:2;stroke-linecap:butt;stroke-linejoin:miter;stroke-miterlimit:4;stroke-dasharray:none;stroke-opacity:1"
       d="M 150.64372,102.61736 L 150.64372,67.617352"
       id="path3158" />
    <path
       style="fill:none;fill-rule:evenodd;stroke:#ffffff;stroke-width:2;stroke-linecap:butt;stroke-linejoin:miter;stroke-miterlimit:4;stroke-dasharray:none;stroke-opacity:1"
       d="M 135.64372,67.617352 L 150.64372,82.617352 L 165.64372,67.617352"
       id="path28"
       sodipodi:nodetypes="ccc" />
  </g>
</svg>
