<?xml version="1.0" encoding="UTF-8" standalone="no"?>
<!-- Created with Inkscape (http://www.inkscape.org/) -->
<svg
   xmlns:dc="http://purl.org/dc/elements/1.1/"
   xmlns:cc="http://creativecommons.org/ns#"
   xmlns:rdf="http://www.w3.org/1999/02/22-rdf-syntax-ns#"
   xmlns:svg="http://www.w3.org/2000/svg"
   xmlns="http://www.w3.org/2000/svg"
   xmlns:sodipodi="http://sodipodi.sourceforge.net/DTD/sodipodi-0.dtd"
   xmlns:inkscape="http://www.inkscape.org/namespaces/inkscape"
   width="37.746849"
   height="37.746902"
   id="svg2"
   sodipodi:version="0.32"
   inkscape:version="0.46"
   sodipodi:docname="status_inspector.svg"
   inkscape:output_extension="org.inkscape.output.svg.inkscape"
   inkscape:export-filename="C:\Documents and Settings\ghelman\My Documents\Specs\PUE Icons\pue_magnifying_status.png"
   inkscape:export-xdpi="90"
   inkscape:export-ydpi="90"
   version="1.0">
  <defs
     id="defs4">
    <inkscape:perspective
       sodipodi:type="inkscape:persp3d"
       inkscape:vp_x="0 : 526.18109 : 1"
       inkscape:vp_y="0 : 1000 : 0"
       inkscape:vp_z="744.09448 : 526.18109 : 1"
       inkscape:persp3d-origin="372.04724 : 350.78739 : 1"
       id="perspective10" />
  </defs>
  <sodipodi:namedview
     id="base"
     pagecolor="#ffffff"
     bordercolor="#666666"
     borderopacity="1.0"
     gridtolerance="10000"
     guidetolerance="10"
     objecttolerance="10"
     inkscape:pageopacity="0.0"
     inkscape:pageshadow="2"
     inkscape:zoom="10.053819"
     inkscape:cx="18.873426"
     inkscape:cy="16.88413"
     inkscape:document-units="px"
     inkscape:current-layer="layer1"
     showgrid="true"
     inkscape:snap-global="false"
     inkscape:window-width="1397"
     inkscape:window-height="964"
     inkscape:window-x="1751"
     inkscape:window-y="11">
    <inkscape:grid
       type="xygrid"
       id="grid2383"
       visible="true"
       enabled="true" />
  </sodipodi:namedview>
  <metadata
     id="metadata7">
    <rdf:RDF>
      <cc:Work
         rdf:about="">
        <dc:format>image/svg+xml</dc:format>
        <dc:type
           rdf:resource="http://purl.org/dc/dcmitype/StillImage" />
      </cc:Work>
    </rdf:RDF>
  </metadata>
  <g
     inkscape:label="Layer 1"
     inkscape:groupmode="layer"
     id="layer1">
    <path
       sodipodi:type="arc"
       style="fill:#00ff00;fill-opacity:1;fill-rule:evenodd;stroke:#000000;stroke-width:1px;stroke-linecap:butt;stroke-linejoin:miter;stroke-opacity:1"
       id="path2387"
       sodipodi:cx="22.5"
       sodipodi:cy="19.862183"
       sodipodi:rx="12.5"
       sodipodi:ry="12.5"
       d="M 35,19.862183 A 12.5,12.5 0 1 1 10,19.862183 A 12.5,12.5 0 1 1 35,19.862183 z"
       transform="matrix(0.7071068,0.7071068,-0.7071068,0.7071068,22.854233,-16.785305)" />
    <rect
       style="fill:#000000;fill-opacity:1;fill-rule:evenodd;stroke:none;stroke-width:1px;stroke-linecap:butt;stroke-linejoin:miter;stroke-opacity:1"
       id="rect2389"
       width="5"
       height="20"
       x="24.29138"
       y="4.3327971"
       transform="matrix(0.7071068,0.7071068,-0.7071068,0.7071068,0,0)" />
    <path
       style="fill:#000000;fill-opacity:1;stroke:none;stroke-opacity:1"
       d="M 23.036612,22.099846 C 18.12521,21.041193 15.119405,15.776371 16.793405,11.16455 C 17.218374,9.9937747 17.784845,9.0161387 18.441993,8.3193597 C 19.097064,7.6247817 19.877159,7.5749657 20.515904,8.1869217 C 21.092314,8.7391567 21.086407,9.4820607 20.499161,10.292731 C 19.403769,11.804876 19.047577,13.123257 19.303054,14.719904 C 19.613068,16.657384 21.078293,18.438751 22.91197,19.107492 C 24.723835,19.768278 26.995061,19.32645 28.433213,18.03343 C 30.761873,15.93976 31.016583,12.742444 29.051223,10.275733 C 28.462513,9.5368547 28.437973,8.8835247 28.974943,8.2453667 C 29.461663,7.6669427 30.275863,7.6105747 30.912353,8.1112387 C 31.517193,8.5870057 32.415703,10.049413 32.813353,11.205292 C 33.305733,12.636547 33.305733,15.08117 32.813353,16.512424 C 32.072953,18.6646 30.497633,20.412195 28.383383,21.426858 C 26.509759,22.326042 24.979548,22.518648 23.036612,22.099846 z M 23.991668,15.018023 C 23.359603,14.50603 23.336612,14.299598 23.336612,9.1362707 C 23.336612,3.6823947 23.364178,3.4952317 24.219631,3.1408917 C 24.811899,2.8955667 25.50903,3.0629097 25.884784,3.5406037 C 26.174142,3.9084627 26.186612,4.1408647 26.186612,9.1656257 L 26.186612,14.406935 L 25.748151,14.845397 C 25.237593,15.355954 24.498521,15.42859 23.991668,15.018023 z"
       id="path2503" />
  </g>
</svg>
