<?xml version="1.0" encoding="UTF-8" standalone="no"?>
<!-- Created with Inkscape (http://www.inkscape.org/) -->
<svg
   xmlns:dc="http://purl.org/dc/elements/1.1/"
   xmlns:cc="http://creativecommons.org/ns#"
   xmlns:rdf="http://www.w3.org/1999/02/22-rdf-syntax-ns#"
   xmlns:svg="http://www.w3.org/2000/svg"
   xmlns="http://www.w3.org/2000/svg"
   xmlns:sodipodi="http://sodipodi.sourceforge.net/DTD/sodipodi-0.dtd"
   xmlns:inkscape="http://www.inkscape.org/namespaces/inkscape"
   width="7.875"
   height="19.125"
   id="svg2"
   sodipodi:version="0.32"
   inkscape:version="0.46"
   sodipodi:docname="subfloor_temp.svg"
   inkscape:output_extension="org.inkscape.output.svg.inkscape"
   version="1.0"
   inkscape:export-filename="C:\work\deploymentlab\cfg\ss\shapes\control_input_temperature_bot.png"
   inkscape:export-xdpi="90"
   inkscape:export-ydpi="90">
  <defs
     id="defs4">
    <inkscape:perspective
       sodipodi:type="inkscape:persp3d"
       inkscape:vp_x="0 : 526.18109 : 1"
       inkscape:vp_y="0 : 1000 : 0"
       inkscape:vp_z="744.09448 : 526.18109 : 1"
       inkscape:persp3d-origin="372.04724 : 350.78739 : 1"
       id="perspective9" />
  </defs>
  <sodipodi:namedview
     id="base"
     pagecolor="#ffffff"
     bordercolor="#666666"
     borderopacity="1.0"
     gridtolerance="10000"
     guidetolerance="10"
     objecttolerance="10"
     inkscape:pageopacity="0.0"
     inkscape:pageshadow="2"
     inkscape:zoom="13.251705"
     inkscape:cx="-17.491006"
     inkscape:cy="8.2497359"
     inkscape:document-units="px"
     inkscape:current-layer="layer1"
     showgrid="true"
     inkscape:window-width="1397"
     inkscape:window-height="964"
     inkscape:window-x="55"
     inkscape:window-y="21"
     inkscape:snap-global="false">
    <inkscape:grid
       type="xygrid"
       id="grid2383"
       visible="true"
       enabled="true" />
  </sodipodi:namedview>
  <metadata
     id="metadata7">
    <rdf:RDF>
      <cc:Work
         rdf:about="">
        <dc:format>image/svg+xml</dc:format>
        <dc:type
           rdf:resource="http://purl.org/dc/dcmitype/StillImage" />
      </cc:Work>
    </rdf:RDF>
  </metadata>
  <g
     inkscape:label="Layer 1"
     inkscape:groupmode="layer"
     id="layer1"
     transform="translate(-10.6875,-11.424682)">
    <path
       style="fill:#ffffff;fill-opacity:1;stroke:#000000;stroke-width:0.37500000000000000;stroke-miterlimit:4;stroke-dasharray:none;stroke-opacity:1"
       d="M 12.75,11.612182 L 12.75,23.377807 C 11.638889,24.028918 10.875,25.232182 10.875,26.612182 C 10.875,28.682182 12.555,30.362182 14.625,30.362182 C 16.695,30.362182 18.375,28.682182 18.375,26.612182 C 18.375,25.232182 17.611111,24.028918 16.5,23.377807 L 16.5,11.612182 L 12.75,11.612182 z"
       id="path3204" />
    <path
       style="fill:none;fill-rule:evenodd;stroke:#000000;stroke-width:0.5;stroke-linecap:butt;stroke-linejoin:miter;stroke-miterlimit:4;stroke-dasharray:none;stroke-opacity:1"
       d="M 14.461114,12.549682 L 16.461114,12.549682"
       id="path3151"
       sodipodi:nodetypes="cc" />
    <path
       style="fill:#0000ff;fill-opacity:0.80000000999999998;stroke:#000000;stroke-width:0.37500000000000000;stroke-miterlimit:4;stroke-dasharray:none;stroke-opacity:1"
       d="M 12.75,17.875527 L 12.75,23.377807 C 11.638889,24.028918 10.875,25.232182 10.875,26.612182 C 10.875,28.682182 12.555,30.362182 14.625,30.362182 C 16.695,30.362182 18.375,28.682182 18.375,26.612182 C 18.375,25.232182 17.611111,24.028918 16.5,23.377807 L 16.5,17.875527"
       id="path3181"
       sodipodi:nodetypes="ccssscc" />
    <path
       style="fill:none;fill-rule:evenodd;stroke:#000000;stroke-width:0.5;stroke-linecap:butt;stroke-linejoin:miter;stroke-miterlimit:4;stroke-dasharray:none;stroke-opacity:1"
       d="M 14.461114,21.569706 L 16.461114,21.569706"
       id="path3161"
       sodipodi:nodetypes="cc" />
    <path
       style="fill:none;fill-rule:evenodd;stroke:#000000;stroke-width:0.5;stroke-linecap:butt;stroke-linejoin:miter;stroke-miterlimit:4;stroke-dasharray:none;stroke-opacity:1"
       d="M 14.461114,14.804689 L 16.461114,14.804689"
       id="path3163"
       sodipodi:nodetypes="cc" />
    <path
       style="fill:none;fill-rule:evenodd;stroke:#000000;stroke-width:0.5;stroke-linecap:butt;stroke-linejoin:miter;stroke-miterlimit:4;stroke-dasharray:none;stroke-opacity:1"
       d="M 14.461114,17.059694 L 16.461114,17.059694"
       id="path3165"
       sodipodi:nodetypes="cc" />
    <path
       style="fill:none;fill-rule:evenodd;stroke:#000000;stroke-width:0.5;stroke-linecap:butt;stroke-linejoin:miter;stroke-miterlimit:4;stroke-dasharray:none;stroke-opacity:1"
       d="M 14.461114,19.3147 L 16.461114,19.3147"
       id="path3167"
       sodipodi:nodetypes="cc" />
  </g>
</svg>
